(kicad_symbol_lib (version 20211014) (generator kicad_symbol_editor)
  (symbol "LiPo_20*30*4" (pin_names (offset 1.016)) (in_bom yes) (on_board yes)
    (property "Reference" "U" (id 0) (at 0 0 0)
      (effects (font (size 1.27 1.27)) hide)
    )
    (property "Value" "LiPo_20*30*4" (id 1) (at 7.62 -2.54 0)
      (effects (font (size 1.27 1.27)))
    )
    (property "Footprint" "" (id 2) (at 0 0 0)
      (effects (font (size 1.27 1.27)) hide)
    )
    (property "Datasheet" "" (id 3) (at 0 0 0)
      (effects (font (size 1.27 1.27)) hide)
    )
    (symbol "LiPo_20*30*4_0_1"
      (rectangle (start 0 0) (end 15.24 -5.08)
        (stroke (width 0.1524) (type default) (color 0 0 0 0))
        (fill (type background))
      )
      (rectangle (start 5.08 -5.08) (end 5.08 -5.08)
        (stroke (width 0.1524) (type default) (color 0 0 0 0))
        (fill (type none))
      )
    )
  )
)
