(module "2450FM07D0034T" (layer F.Cu)
  (descr "2450FM07D0034T-3")
  (tags "Filter")
  (attr smd)
  (fp_text reference FL** (at 0.000 -0) (layer F.SilkS)
    (effects (font (size 1.27 1.27) (thickness 0.254)))
  )
  (fp_text user %R (at 0.000 -0) (layer F.Fab)
    (effects (font (size 1.27 1.27) (thickness 0.254)))
  )
  (fp_text value "2450FM07D0034T" (at 0.000 -0) (layer F.SilkS) hide
    (effects (font (size 1.27 1.27) (thickness 0.254)))
  )
  (fp_line (start -0.5 -0.25) (end 0.5 -0.25) (layer F.Fab) (width 0.2))
  (fp_line (start 0.5 -0.25) (end 0.5 0.25) (layer F.Fab) (width 0.2))
  (fp_line (start 0.5 0.25) (end -0.5 0.25) (layer F.Fab) (width 0.2))
  (fp_line (start -0.5 0.25) (end -0.5 -0.25) (layer F.Fab) (width 0.2))
  (fp_line (start -1.875 -1.6) (end 1.875 -1.6) (layer F.CrtYd) (width 0.1))
  (fp_line (start 1.875 -1.6) (end 1.875 1.6) (layer F.CrtYd) (width 0.1))
  (fp_line (start 1.875 1.6) (end -1.875 1.6) (layer F.CrtYd) (width 0.1))
  (fp_line (start -1.875 1.6) (end -1.875 -1.6) (layer F.CrtYd) (width 0.1))
  (fp_line (start -1.3 -0.1) (end -1.3 -0.1) (layer F.SilkS) (width 0.2))
  (fp_line (start -1.3 0.1) (end -1.3 0.1) (layer F.SilkS) (width 0.2))
  (fp_arc (start -1.3 -0) (end -1.300 -0.1) (angle -180) (layer F.SilkS) (width 0.2))
  (fp_arc (start -1.3 -0) (end -1.300 0.1) (angle -180) (layer F.SilkS) (width 0.2))
  (pad 1 smd rect (at -0.600 -0 90) (size 0.550 0.550) (layers F.Cu F.Paste F.Mask))
  (pad 2 smd rect (at 0.000 0.35 0) (size 0.300 0.500) (layers F.Cu F.Paste F.Mask))
  (pad 3 smd rect (at 0.600 -0 90) (size 0.550 0.550) (layers F.Cu F.Paste F.Mask))
  (pad 4 smd rect (at 0.000 -0.35 0) (size 0.300 0.500) (layers F.Cu F.Paste F.Mask))
)