(module 3M_30316-6002 (layer F.Cu) (tedit 5FDCD720)
  (fp_text reference REF** (at -1.016 -5.461) (layer F.SilkS)
    (effects (font (size 1 1) (thickness 0.15)))
  )
  (fp_text value 3M_30316-6002 (at 5.08 5.207 90) (layer F.Fab)
    (effects (font (size 1 1) (thickness 0.15)))
  )
  (fp_line (start -3.81 -6.35) (end 6.35 -6.35) (layer F.SilkS) (width 0.12))
  (fp_line (start 6.35 -6.35) (end 6.35 24.13) (layer F.SilkS) (width 0.12))
  (fp_line (start 6.35 24.13) (end -3.81 24.13) (layer F.SilkS) (width 0.12))
  (fp_line (start -3.81 24.13) (end -3.81 10.16) (layer F.SilkS) (width 0.12))
  (fp_line (start -3.81 10.16) (end -3.302 10.16) (layer F.SilkS) (width 0.12))
  (fp_line (start -3.302 10.16) (end -3.302 7.62) (layer F.SilkS) (width 0.12))
  (fp_line (start -3.302 7.62) (end -3.81 7.62) (layer F.SilkS) (width 0.12))
  (fp_line (start -3.81 7.62) (end -3.81 -6.35) (layer F.SilkS) (width 0.12))
  (fp_line (start -3.302 7.62) (end -3.81 7.62) (layer F.Fab) (width 0.12))
  (fp_line (start -3.81 -6.35) (end 6.35 -6.35) (layer F.Fab) (width 0.12))
  (fp_line (start -3.302 10.16) (end -3.302 7.62) (layer F.Fab) (width 0.12))
  (fp_line (start 6.35 -6.35) (end 6.35 24.13) (layer F.Fab) (width 0.12))
  (fp_line (start -3.81 10.16) (end -3.302 10.16) (layer F.Fab) (width 0.12))
  (fp_line (start -3.81 24.13) (end -3.81 10.16) (layer F.Fab) (width 0.12))
  (fp_line (start 6.35 24.13) (end -3.81 24.13) (layer F.Fab) (width 0.12))
  (fp_line (start -3.81 7.62) (end -3.81 -6.35) (layer F.Fab) (width 0.12))
  (pad 3 thru_hole oval (at 0 2.54) (size 1.7 1.7) (drill 1) (layers *.Cu *.Mask))
  (pad 4 thru_hole oval (at 2.54 2.54) (size 1.7 1.7) (drill 1) (layers *.Cu *.Mask))
  (pad 6 thru_hole oval (at 2.54 5.08) (size 1.7 1.7) (drill 1) (layers *.Cu *.Mask))
  (pad 1 thru_hole rect (at 0 0) (size 1.7 1.7) (drill 1) (layers *.Cu *.Mask))
  (pad 2 thru_hole oval (at 2.54 0) (size 1.7 1.7) (drill 1) (layers *.Cu *.Mask))
  (pad 9 thru_hole oval (at 0 10.16) (size 1.7 1.7) (drill 1) (layers *.Cu *.Mask))
  (pad 10 thru_hole oval (at 2.54 10.16) (size 1.7 1.7) (drill 1) (layers *.Cu *.Mask))
  (pad 5 thru_hole oval (at 0 5.08) (size 1.7 1.7) (drill 1) (layers *.Cu *.Mask))
  (pad 7 thru_hole oval (at 0 7.62) (size 1.7 1.7) (drill 1) (layers *.Cu *.Mask))
  (pad 8 thru_hole oval (at 2.54 7.62) (size 1.7 1.7) (drill 1) (layers *.Cu *.Mask))
  (pad 13 thru_hole oval (at 0 15.24) (size 1.7 1.7) (drill 1) (layers *.Cu *.Mask))
  (pad 12 thru_hole oval (at 2.54 12.7) (size 1.7 1.7) (drill 1) (layers *.Cu *.Mask))
  (pad 11 thru_hole oval (at 0 12.7) (size 1.7 1.7) (drill 1) (layers *.Cu *.Mask))
  (pad 16 thru_hole oval (at 2.54 17.78) (size 1.7 1.7) (drill 1) (layers *.Cu *.Mask))
  (pad 14 thru_hole oval (at 2.54 15.24) (size 1.7 1.7) (drill 1) (layers *.Cu *.Mask))
  (pad 15 thru_hole oval (at 0 17.78) (size 1.7 1.7) (drill 1) (layers *.Cu *.Mask))
  (model ${KICAD_USER_3D}/connector/30316-6002.stp
    (offset (xyz -2.9 5.1 0))
    (scale (xyz 1 1 1))
    (rotate (xyz 0 0 90))
  )
)
