(module Benou_bot_graphics_15mm (layer F.Cu) (tedit 0)
  (fp_text reference Ref** (at 0 0) (layer F.SilkS) hide
    (effects (font (size 1.27 1.27) (thickness 0.15)))
  )
  (fp_text value Val** (at 0 0) (layer F.SilkS) hide
    (effects (font (size 1.27 1.27) (thickness 0.15)))
  )
  (fp_poly (pts (xy 6.038082 -1.460442) (xy 6.193101 -1.423108) (xy 6.255618 -1.398797) (xy 6.316534 -1.373665)
    (xy 6.353037 -1.366214) (xy 6.378655 -1.37534) (xy 6.393575 -1.387541) (xy 6.44291 -1.410118)
    (xy 6.507647 -1.414338) (xy 6.569631 -1.401537) (xy 6.610709 -1.373051) (xy 6.611739 -1.37148)
    (xy 6.622958 -1.328393) (xy 6.609114 -1.265733) (xy 6.606712 -1.258947) (xy 6.579075 -1.182518)
    (xy 6.695117 -1.06086) (xy 6.784239 -0.956894) (xy 6.873563 -0.834117) (xy 6.957448 -0.702131)
    (xy 7.030258 -0.570533) (xy 7.086354 -0.448925) (xy 7.120099 -0.346906) (xy 7.123278 -0.33182)
    (xy 7.131548 -0.237425) (xy 7.122651 -0.149923) (xy 7.098995 -0.080503) (xy 7.062987 -0.040356)
    (xy 7.060295 -0.039035) (xy 7.003934 -0.026969) (xy 6.958091 -0.049564) (xy 6.919884 -0.109466)
    (xy 6.890349 -0.194912) (xy 6.863058 -0.281323) (xy 6.831485 -0.365296) (xy 6.810194 -0.41275)
    (xy 6.760399 -0.5011) (xy 6.695945 -0.601748) (xy 6.625262 -0.702723) (xy 6.556779 -0.792052)
    (xy 6.498923 -0.857763) (xy 6.492387 -0.864172) (xy 6.418705 -0.934593) (xy 6.323238 -0.758338)
    (xy 6.212231 -0.547691) (xy 6.119266 -0.356389) (xy 6.042821 -0.177769) (xy 5.981373 -0.005166)
    (xy 5.933397 0.16808) (xy 5.897371 0.348634) (xy 5.871771 0.543158) (xy 5.855075 0.758316)
    (xy 5.845757 1.00077) (xy 5.842296 1.277183) (xy 5.842169 1.345832) (xy 5.842 1.919081)
    (xy 5.953125 1.903966) (xy 6.032588 1.889609) (xy 6.129874 1.867119) (xy 6.214698 1.844009)
    (xy 6.323655 1.814529) (xy 6.401195 1.801917) (xy 6.454751 1.806231) (xy 6.491757 1.827526)
    (xy 6.507549 1.84621) (xy 6.537736 1.917522) (xy 6.526155 1.984017) (xy 6.492875 2.026928)
    (xy 6.446159 2.055757) (xy 6.368107 2.088398) (xy 6.269126 2.121622) (xy 6.159622 2.152205)
    (xy 6.050003 2.17692) (xy 5.963493 2.191031) (xy 5.842 2.206211) (xy 5.842 2.285847)
    (xy 5.827172 2.362707) (xy 5.785075 2.408082) (xy 5.719287 2.41948) (xy 5.666767 2.407916)
    (xy 5.624213 2.383247) (xy 5.596278 2.336717) (xy 5.583002 2.294617) (xy 5.558053 2.201333)
    (xy 5.36362 2.201333) (xy 5.184897 2.196381) (xy 4.988148 2.182495) (xy 4.785122 2.161132)
    (xy 4.587565 2.133748) (xy 4.407227 2.101799) (xy 4.255856 2.066741) (xy 4.238195 2.061826)
    (xy 4.081793 2.003273) (xy 3.923122 1.919055) (xy 3.771805 1.816163) (xy 3.637467 1.701588)
    (xy 3.529733 1.582319) (xy 3.482946 1.513265) (xy 3.427344 1.418387) (xy 3.301834 1.552558)
    (xy 3.15047 1.68659) (xy 2.979513 1.785155) (xy 2.787167 1.848886) (xy 2.571637 1.878413)
    (xy 2.377267 1.8776) (xy 2.213587 1.858774) (xy 2.077814 1.819917) (xy 1.958108 1.755577)
    (xy 1.842632 1.660301) (xy 1.790046 1.607103) (xy 1.709734 1.513616) (xy 1.638235 1.410756)
    (xy 1.572496 1.292267) (xy 1.509459 1.151894) (xy 1.44607 0.983381) (xy 1.379273 0.78047)
    (xy 1.366967 0.740833) (xy 1.297425 0.523349) (xy 1.235354 0.346616) (xy 1.180422 0.209775)
    (xy 1.132297 0.111969) (xy 1.110465 0.077123) (xy 1.091603 0.054429) (xy 1.07643 0.056177)
    (xy 1.057511 0.087805) (xy 1.038413 0.129834) (xy 1.001135 0.233156) (xy 0.964096 0.370934)
    (xy 0.928724 0.53531) (xy 0.896441 0.718422) (xy 0.868673 0.912411) (xy 0.846844 1.109416)
    (xy 0.835596 1.248833) (xy 0.825898 1.382352) (xy 0.816411 1.480385) (xy 0.805799 1.549749)
    (xy 0.792723 1.597263) (xy 0.775848 1.629744) (xy 0.756644 1.651446) (xy 0.69974 1.68762)
    (xy 0.642741 1.684743) (xy 0.587572 1.651536) (xy 0.566929 1.633538) (xy 0.552139 1.612485)
    (xy 0.541886 1.581136) (xy 0.534854 1.532251) (xy 0.529726 1.458588) (xy 0.525186 1.352905)
    (xy 0.523129 1.296994) (xy 0.502806 1.032834) (xy 0.462197 0.764524) (xy 0.403837 0.503432)
    (xy 0.330257 0.260928) (xy 0.245929 0.052491) (xy 0.190027 -0.057013) (xy 0.140879 -0.128053)
    (xy 0.093621 -0.162874) (xy 0.043388 -0.163719) (xy -0.014685 -0.132832) (xy -0.065315 -0.091093)
    (xy -0.139775 -0.004801) (xy -0.216008 0.119646) (xy -0.292045 0.278236) (xy -0.365918 0.466955)
    (xy -0.421541 0.635) (xy -0.477779 0.816718) (xy -0.524132 0.963566) (xy -0.562618 1.081297)
    (xy -0.595253 1.175666) (xy -0.624055 1.252428) (xy -0.651042 1.317336) (xy -0.67823 1.376147)
    (xy -0.689094 1.398214) (xy -0.761918 1.520331) (xy -0.841145 1.61157) (xy -0.923018 1.669874)
    (xy -1.003778 1.693186) (xy -1.079668 1.679449) (xy -1.133379 1.641379) (xy -1.168856 1.596773)
    (xy -1.185209 1.558209) (xy -1.185334 1.55575) (xy -1.167225 1.513624) (xy -1.116641 1.458958)
    (xy -1.039199 1.397681) (xy -1.02897 1.390578) (xy -1.006742 1.372675) (xy -0.985368 1.348147)
    (xy -0.963323 1.313131) (xy -0.939084 1.263761) (xy -0.911126 1.196173) (xy -0.877925 1.106502)
    (xy -0.837957 0.990883) (xy -0.789698 0.845451) (xy -0.731625 0.666342) (xy -0.680533 0.507028)
    (xy -0.591065 0.253399) (xy -0.498321 0.041824) (xy -0.402328 -0.127642) (xy -0.312157 -0.245234)
    (xy -0.203505 -0.348327) (xy -0.097352 -0.414295) (xy 0.013817 -0.447145) (xy 0.076578 -0.452481)
    (xy 0.155654 -0.448745) (xy 0.218029 -0.428018) (xy 0.276058 -0.391583) (xy 0.363364 -0.308707)
    (xy 0.447467 -0.188163) (xy 0.525636 -0.034617) (xy 0.595141 0.147267) (xy 0.599696 0.161201)
    (xy 0.669486 0.377007) (xy 0.69819 0.247624) (xy 0.723509 0.159762) (xy 0.761193 0.058419)
    (xy 0.799003 -0.025897) (xy 0.873012 -0.145683) (xy 0.954842 -0.226768) (xy 1.04256 -0.268249)
    (xy 1.134236 -0.269222) (xy 1.22794 -0.228783) (xy 1.229828 -0.227542) (xy 1.28406 -0.174202)
    (xy 1.344799 -0.083652) (xy 1.410039 0.03985) (xy 1.477774 0.192045) (xy 1.545998 0.368677)
    (xy 1.612706 0.565485) (xy 1.631081 0.624417) (xy 1.694821 0.824137) (xy 1.753559 0.988134)
    (xy 1.810097 1.122294) (xy 1.867236 1.232503) (xy 1.927779 1.324644) (xy 1.994527 1.404603)
    (xy 2.010469 1.421294) (xy 2.105069 1.50676) (xy 2.198613 1.563603) (xy 2.301093 1.594859)
    (xy 2.422502 1.603562) (xy 2.57283 1.592746) (xy 2.574388 1.592565) (xy 2.745155 1.562787)
    (xy 2.884054 1.51541) (xy 2.999153 1.446876) (xy 3.086704 1.366735) (xy 3.149611 1.285814)
    (xy 3.189939 1.199261) (xy 3.207571 1.11112) (xy 3.671113 1.11112) (xy 3.672663 1.183776)
    (xy 3.715252 1.32786) (xy 3.79658 1.460495) (xy 3.914008 1.579177) (xy 4.064899 1.681406)
    (xy 4.246614 1.764678) (xy 4.307416 1.785807) (xy 4.428528 1.820802) (xy 4.559376 1.849645)
    (xy 4.705752 1.873029) (xy 4.873446 1.891643) (xy 5.068251 1.906178) (xy 5.295957 1.917327)
    (xy 5.455708 1.922826) (xy 5.566833 1.926167) (xy 5.566833 1.294851) (xy 5.568339 1.035773)
    (xy 5.573372 0.812833) (xy 5.582699 0.619928) (xy 5.597093 0.450953) (xy 5.617321 0.299804)
    (xy 5.644154 0.160375) (xy 5.678362 0.026562) (xy 5.720714 -0.107739) (xy 5.756175 -0.206805)
    (xy 5.81959 -0.364215) (xy 5.897339 -0.537515) (xy 5.981918 -0.711054) (xy 6.065821 -0.869184)
    (xy 6.112468 -0.949744) (xy 6.159616 -1.030126) (xy 6.182927 -1.082863) (xy 6.180945 -1.116243)
    (xy 6.152213 -1.138555) (xy 6.095276 -1.158087) (xy 6.074833 -1.163973) (xy 5.931084 -1.185112)
    (xy 5.79236 -1.168191) (xy 5.665811 -1.115785) (xy 5.558586 -1.030468) (xy 5.502176 -0.957851)
    (xy 5.455985 -0.862829) (xy 5.441977 -0.768976) (xy 5.461131 -0.67002) (xy 5.514426 -0.559691)
    (xy 5.579408 -0.462954) (xy 5.636941 -0.363155) (xy 5.657041 -0.273724) (xy 5.639848 -0.197793)
    (xy 5.585503 -0.138494) (xy 5.564185 -0.125583) (xy 5.529614 -0.116646) (xy 5.461978 -0.106611)
    (xy 5.37049 -0.096608) (xy 5.26436 -0.087767) (xy 5.244944 -0.086422) (xy 4.960365 -0.051878)
    (xy 4.704662 0.012439) (xy 4.475268 0.107957) (xy 4.269619 0.2361) (xy 4.08515 0.398295)
    (xy 3.919294 0.595968) (xy 3.858091 0.684526) (xy 3.760672 0.848688) (xy 3.698448 0.990611)
    (xy 3.671113 1.11112) (xy 3.207571 1.11112) (xy 3.210403 1.096968) (xy 3.213717 0.968825)
    (xy 3.210663 0.905101) (xy 3.204033 0.819495) (xy 3.196397 0.749811) (xy 3.18905 0.707055)
    (xy 3.186512 0.700004) (xy 3.159411 0.693479) (xy 3.101813 0.702469) (xy 3.063583 0.712702)
    (xy 2.93147 0.735093) (xy 2.795725 0.72273) (xy 2.648645 0.674684) (xy 2.611346 0.657993)
    (xy 2.48663 0.593471) (xy 2.394485 0.529407) (xy 2.325979 0.457924) (xy 2.272181 0.371142)
    (xy 2.261585 0.349539) (xy 2.214057 0.206817) (xy 2.207393 0.096466) (xy 2.480516 0.096466)
    (xy 2.482629 0.185385) (xy 2.506163 0.249964) (xy 2.561144 0.319101) (xy 2.648196 0.385422)
    (xy 2.757135 0.443539) (xy 2.877775 0.488061) (xy 2.999932 0.513601) (xy 3.005666 0.514258)
    (xy 3.084306 0.52303) (xy 3.126913 0.522611) (xy 3.139758 0.50542) (xy 3.129113 0.463878)
    (xy 3.103392 0.396125) (xy 3.036054 0.23304) (xy 2.970274 0.108329) (xy 2.903186 0.018269)
    (xy 2.831919 -0.040867) (xy 2.753605 -0.072805) (xy 2.740107 -0.075663) (xy 2.645849 -0.075261)
    (xy 2.567549 -0.041406) (xy 2.51063 0.018353) (xy 2.480516 0.096466) (xy 2.207393 0.096466)
    (xy 2.205649 0.067601) (xy 2.235106 -0.062766) (xy 2.301171 -0.178944) (xy 2.402587 -0.275591)
    (xy 2.409818 -0.280686) (xy 2.467889 -0.317223) (xy 2.521437 -0.339) (xy 2.586476 -0.35067)
    (xy 2.670731 -0.356505) (xy 2.759126 -0.358849) (xy 2.821729 -0.353747) (xy 2.874854 -0.338112)
    (xy 2.934818 -0.308857) (xy 2.941419 -0.305281) (xy 3.076051 -0.208186) (xy 3.194359 -0.072796)
    (xy 3.295771 0.099892) (xy 3.379715 0.308878) (xy 3.445619 0.553165) (xy 3.452814 0.587375)
    (xy 3.472647 0.669859) (xy 3.490595 0.711318) (xy 3.507615 0.712965) (xy 3.524115 0.677757)
    (xy 3.546669 0.632255) (xy 3.59048 0.563298) (xy 3.649189 0.479518) (xy 3.716438 0.389548)
    (xy 3.785869 0.302019) (xy 3.851123 0.225563) (xy 3.880703 0.193659) (xy 3.963873 0.115118)
    (xy 4.064073 0.0321) (xy 4.169929 -0.046945) (xy 4.270063 -0.113569) (xy 4.353099 -0.159323)
    (xy 4.360333 -0.162559) (xy 4.545393 -0.234742) (xy 4.733138 -0.292991) (xy 4.912769 -0.33459)
    (xy 5.073488 -0.356825) (xy 5.144883 -0.359833) (xy 5.211461 -0.361551) (xy 5.257005 -0.36601)
    (xy 5.2705 -0.371055) (xy 5.262888 -0.394919) (xy 5.243015 -0.446185) (xy 5.217583 -0.508)
    (xy 5.171664 -0.666962) (xy 5.165374 -0.82424) (xy 5.196116 -0.97511) (xy 5.261296 -1.114851)
    (xy 5.358317 -1.238742) (xy 5.484584 -1.342061) (xy 5.637501 -1.420085) (xy 5.736314 -1.451616)
    (xy 5.880506 -1.470485) (xy 6.038082 -1.460442)) (layer B.SilkS) (width 0.01))
  (fp_poly (pts (xy -4.5152 -0.595562) (xy -4.452938 -0.539738) (xy -4.387731 -0.44485) (xy -4.323392 -0.320411)
    (xy -4.276247 -0.22545) (xy -4.226737 -0.135412) (xy -4.182375 -0.06358) (xy -4.16277 -0.036491)
    (xy -4.071603 0.059978) (xy -3.950476 0.162659) (xy -3.80948 0.264043) (xy -3.658705 0.356623)
    (xy -3.573796 0.401805) (xy -3.358234 0.509719) (xy -3.324444 0.37549) (xy -3.269066 0.226931)
    (xy -3.182368 0.082028) (xy -3.072217 -0.050141) (xy -2.946481 -0.160495) (xy -2.813027 -0.239955)
    (xy -2.778857 -0.254125) (xy -2.642464 -0.289124) (xy -2.509516 -0.293069) (xy -2.389807 -0.266536)
    (xy -2.314534 -0.226928) (xy -2.264922 -0.193667) (xy -2.237463 -0.184076) (xy -2.220862 -0.195871)
    (xy -2.2144 -0.206675) (xy -2.176601 -0.253781) (xy -2.122315 -0.272998) (xy -2.088835 -0.274843)
    (xy -2.030786 -0.255895) (xy -1.95736 -0.199415) (xy -1.869901 -0.106762) (xy -1.769749 0.020704)
    (xy -1.70061 0.11846) (xy -1.586648 0.292945) (xy -1.498901 0.447886) (xy -1.433676 0.593703)
    (xy -1.387281 0.740811) (xy -1.356023 0.899629) (xy -1.336208 1.080574) (xy -1.330617 1.162181)
    (xy -1.323437 1.286668) (xy -1.319549 1.377918) (xy -1.319636 1.444946) (xy -1.324382 1.496768)
    (xy -1.334468 1.5424) (xy -1.350578 1.590857) (xy -1.366234 1.632406) (xy -1.447206 1.788717)
    (xy -1.559157 1.919982) (xy -1.697111 2.020791) (xy -1.74625 2.045878) (xy -1.816426 2.075029)
    (xy -1.883928 2.093922) (xy -1.962974 2.105342) (xy -2.067782 2.112078) (xy -2.088384 2.112926)
    (xy -2.198899 2.11545) (xy -2.282538 2.111832) (xy -2.354521 2.100409) (xy -2.430067 2.07952)
    (xy -2.448217 2.073641) (xy -2.51054 2.051315) (xy -2.56247 2.026594) (xy -2.612576 1.993277)
    (xy -2.669426 1.945164) (xy -2.741587 1.876055) (xy -2.795135 1.8226) (xy -2.974242 1.626562)
    (xy -3.115433 1.435446) (xy -3.221892 1.244028) (xy -3.296803 1.047086) (xy -3.319394 0.962442)
    (xy -3.339221 0.878417) (xy -3.04614 0.878417) (xy -3.034151 0.931333) (xy -2.998967 1.035945)
    (xy -2.938949 1.159998) (xy -2.860073 1.293905) (xy -2.768317 1.428076) (xy -2.669658 1.552923)
    (xy -2.597375 1.631992) (xy -2.463712 1.743107) (xy -2.321805 1.812778) (xy -2.170703 1.841259)
    (xy -2.009453 1.828805) (xy -1.933861 1.810074) (xy -1.819449 1.755376) (xy -1.721332 1.668541)
    (xy -1.649904 1.559348) (xy -1.638255 1.531866) (xy -1.623048 1.483189) (xy -1.613879 1.427352)
    (xy -1.610114 1.354835) (xy -1.611121 1.256114) (xy -1.614189 1.169617) (xy -1.624082 1.013832)
    (xy -1.64198 0.885698) (xy -1.671827 0.770725) (xy -1.717567 0.654426) (xy -1.783144 0.522313)
    (xy -1.797903 0.494726) (xy -1.835004 0.430285) (xy -1.881826 0.355057) (xy -1.932711 0.277362)
    (xy -1.982001 0.205523) (xy -2.024038 0.147859) (xy -2.053163 0.112692) (xy -2.062353 0.105833)
    (xy -2.063146 0.124994) (xy -2.061035 0.17472) (xy -2.057454 0.230229) (xy -2.06778 0.369976)
    (xy -2.116288 0.508422) (xy -2.199402 0.63731) (xy -2.263349 0.705646) (xy -2.347135 0.772965)
    (xy -2.437781 0.820847) (xy -2.544234 0.85204) (xy -2.675442 0.869293) (xy -2.814992 0.875077)
    (xy -3.04614 0.878417) (xy -3.339221 0.878417) (xy -3.358537 0.796559) (xy -3.46256 0.761111)
    (xy -3.547018 0.728115) (xy -3.649911 0.681735) (xy -3.759192 0.628063) (xy -3.862819 0.57319)
    (xy -3.905063 0.548619) (xy -3.067387 0.548619) (xy -3.047848 0.575519) (xy -3.001936 0.588694)
    (xy -2.92423 0.591668) (xy -2.820086 0.588428) (xy -2.686392 0.579397) (xy -2.590184 0.564906)
    (xy -2.526883 0.54425) (xy -2.524035 0.542801) (xy -2.444881 0.481948) (xy -2.386671 0.398946)
    (xy -2.353048 0.304581) (xy -2.347652 0.20964) (xy -2.374126 0.124908) (xy -2.379813 0.115639)
    (xy -2.41252 0.074083) (xy -2.0955 0.074083) (xy -2.084917 0.084667) (xy -2.074334 0.074083)
    (xy -2.084917 0.0635) (xy -2.0955 0.074083) (xy -2.41252 0.074083) (xy -2.43086 0.050783)
    (xy -2.485108 0.002301) (xy -2.531642 -0.020419) (xy -2.5387 -0.021049) (xy -2.64438 -0.001219)
    (xy -2.752441 0.053058) (xy -2.855428 0.135051) (xy -2.945887 0.238033) (xy -3.016362 0.355274)
    (xy -3.049018 0.439548) (xy -3.065971 0.50447) (xy -3.067387 0.548619) (xy -3.905063 0.548619)
    (xy -3.948747 0.523211) (xy -3.996248 0.491152) (xy -4.066558 0.437525) (xy -4.052573 0.499221)
    (xy -4.037818 0.561983) (xy -4.019988 0.634923) (xy -4.017542 0.644697) (xy -4.010427 0.694106)
    (xy -4.00434 0.776599) (xy -3.999723 0.882934) (xy -3.997019 1.003864) (xy -3.996496 1.084815)
    (xy -3.998972 1.257448) (xy -4.007897 1.396595) (xy -4.025518 1.510891) (xy -4.054083 1.608976)
    (xy -4.095837 1.699485) (xy -4.153028 1.791056) (xy -4.195504 1.849858) (xy -4.263093 1.932795)
    (xy -4.326699 1.991002) (xy -4.401458 2.037518) (xy -4.430222 2.052071) (xy -4.600128 2.113161)
    (xy -4.772936 2.132994) (xy -4.914917 2.117981) (xy -5.048995 2.073022) (xy -5.180626 1.993375)
    (xy -5.311956 1.877177) (xy -5.445131 1.722566) (xy -5.565948 1.552657) (xy -5.709738 1.334941)
    (xy -5.723194 1.436382) (xy -5.753767 1.558609) (xy -5.811832 1.695084) (xy -5.891203 1.834406)
    (xy -5.985694 1.965173) (xy -6.048844 2.036624) (xy -6.14596 2.131807) (xy -6.23457 2.20342)
    (xy -6.327604 2.259388) (xy -6.437987 2.307634) (xy -6.56045 2.350226) (xy -6.661146 2.382327)
    (xy -6.73043 2.401742) (xy -6.77705 2.409167) (xy -6.809757 2.405297) (xy -6.837301 2.390828)
    (xy -6.859183 2.373965) (xy -6.896536 2.32168) (xy -6.908021 2.256979) (xy -6.893029 2.196427)
    (xy -6.86682 2.165644) (xy -6.828459 2.145865) (xy -6.761729 2.119123) (xy -6.678924 2.090219)
    (xy -6.649808 2.080912) (xy -6.46508 2.002338) (xy -6.305748 1.889974) (xy -6.172324 1.744279)
    (xy -6.065321 1.565712) (xy -6.058965 1.552276) (xy -6.00144 1.42875) (xy -6.006057 0.85027)
    (xy -6.007283 0.659509) (xy -6.006971 0.506839) (xy -6.004195 0.388021) (xy -5.998032 0.298819)
    (xy -5.987556 0.234995) (xy -5.971841 0.192309) (xy -5.949962 0.166525) (xy -5.920995 0.153404)
    (xy -5.884014 0.148709) (xy -5.852785 0.148167) (xy -5.804587 0.150097) (xy -5.769589 0.160106)
    (xy -5.744358 0.18452) (xy -5.725464 0.229665) (xy -5.709474 0.301869) (xy -5.692956 0.407456)
    (xy -5.686147 0.455372) (xy -5.627029 0.743815) (xy -5.531828 1.017823) (xy -5.39809 1.283721)
    (xy -5.310018 1.424611) (xy -5.185477 1.59225) (xy -5.063233 1.718027) (xy -4.942676 1.802312)
    (xy -4.823199 1.845475) (xy -4.70419 1.847889) (xy -4.639952 1.832395) (xy -4.52599 1.77754)
    (xy -4.433457 1.693449) (xy -4.356954 1.57481) (xy -4.337825 1.535015) (xy -4.312796 1.477519)
    (xy -4.295578 1.428111) (xy -4.284723 1.376774) (xy -4.278783 1.313493) (xy -4.27631 1.228251)
    (xy -4.275856 1.111031) (xy -4.275859 1.106423) (xy -4.278004 0.959876) (xy -4.285263 0.839732)
    (xy -4.299201 0.730211) (xy -4.321379 0.615532) (xy -4.326964 0.590486) (xy -4.37131 0.405699)
    (xy -4.413341 0.255081) (xy -4.455717 0.130759) (xy -4.5011 0.024863) (xy -4.548054 -0.0635)
    (xy -4.610468 -0.177386) (xy -4.662108 -0.28487) (xy -4.69931 -0.377404) (xy -4.718414 -0.446436)
    (xy -4.720167 -0.465261) (xy -4.70338 -0.515175) (xy -4.662542 -0.566177) (xy -4.611935 -0.603567)
    (xy -4.575817 -0.613833) (xy -4.5152 -0.595562)) (layer B.SilkS) (width 0.01))
)
