(module FV-1 (layer F.Cu) (tedit 5FB37C01)
  (attr smd)
  (fp_text reference FV-1 (at -10.005 0 90) (layer F.SilkS)
    (effects (font (size 1 1) (thickness 0.15)))
  )
  (fp_text value FV-1 (at 0 0) (layer F.Fab)
    (effects (font (size 1 1) (thickness 0.15)))
  )
  (fp_line (start -8.76 5.81) (end -8.76 -5.81) (layer F.CrtYd) (width 0.05))
  (fp_line (start 8.76 5.81) (end -8.76 5.81) (layer F.CrtYd) (width 0.05))
  (fp_line (start 8.76 -5.81) (end 8.76 5.81) (layer F.CrtYd) (width 0.05))
  (fp_line (start -8.76 -5.81) (end 8.76 -5.81) (layer F.CrtYd) (width 0.05))
  (fp_line (start 9.005 6.06) (end -8.205 6.06) (layer F.SilkS) (width 0.12))
  (fp_line (start 9.005 -6.06) (end 9.005 6.06) (layer F.SilkS) (width 0.12))
  (fp_line (start -9.005 -6.06) (end 9.005 -6.06) (layer F.SilkS) (width 0.12))
  (fp_line (start -9.005 5.26) (end -9.005 -6.06) (layer F.SilkS) (width 0.12))
  (fp_line (start -8.205 6.06) (end -9.005 5.26) (layer F.SilkS) (width 0.12))
  (pad 28 smd rect (at -8.255 -4.46) (size 0.5 2.2) (layers F.Cu F.Paste F.Mask))
  (pad 1 smd rect (at -8.255 4.46) (size 0.5 2.2) (layers F.Cu F.Paste F.Mask))
  (pad 27 smd rect (at -6.985 -4.46) (size 0.5 2.2) (layers F.Cu F.Paste F.Mask))
  (pad 2 smd rect (at -6.985 4.46) (size 0.5 2.2) (layers F.Cu F.Paste F.Mask))
  (pad 26 smd rect (at -5.715 -4.46) (size 0.5 2.2) (layers F.Cu F.Paste F.Mask))
  (pad 3 smd rect (at -5.715 4.46) (size 0.5 2.2) (layers F.Cu F.Paste F.Mask))
  (pad 25 smd rect (at -4.445 -4.46) (size 0.5 2.2) (layers F.Cu F.Paste F.Mask))
  (pad 4 smd rect (at -4.445 4.46) (size 0.5 2.2) (layers F.Cu F.Paste F.Mask))
  (pad 24 smd rect (at -3.175 -4.46) (size 0.5 2.2) (layers F.Cu F.Paste F.Mask))
  (pad 5 smd rect (at -3.175 4.46) (size 0.5 2.2) (layers F.Cu F.Paste F.Mask))
  (pad 23 smd rect (at -1.905 -4.46) (size 0.5 2.2) (layers F.Cu F.Paste F.Mask))
  (pad 6 smd rect (at -1.905 4.46) (size 0.5 2.2) (layers F.Cu F.Paste F.Mask))
  (pad 22 smd rect (at -0.635 -4.46) (size 0.5 2.2) (layers F.Cu F.Paste F.Mask))
  (pad 7 smd rect (at -0.635 4.46) (size 0.5 2.2) (layers F.Cu F.Paste F.Mask))
  (pad 21 smd rect (at 0.635 -4.46) (size 0.5 2.2) (layers F.Cu F.Paste F.Mask))
  (pad 8 smd rect (at 0.635 4.46) (size 0.5 2.2) (layers F.Cu F.Paste F.Mask))
  (pad 20 smd rect (at 1.905 -4.46) (size 0.5 2.2) (layers F.Cu F.Paste F.Mask))
  (pad 9 smd rect (at 1.905 4.46) (size 0.5 2.2) (layers F.Cu F.Paste F.Mask))
  (pad 19 smd rect (at 3.175 -4.46) (size 0.5 2.2) (layers F.Cu F.Paste F.Mask))
  (pad 10 smd rect (at 3.175 4.46) (size 0.5 2.2) (layers F.Cu F.Paste F.Mask))
  (pad 18 smd rect (at 4.445 -4.46) (size 0.5 2.2) (layers F.Cu F.Paste F.Mask))
  (pad 11 smd rect (at 4.445 4.46) (size 0.5 2.2) (layers F.Cu F.Paste F.Mask))
  (pad 17 smd rect (at 5.715 -4.46) (size 0.5 2.2) (layers F.Cu F.Paste F.Mask))
  (pad 12 smd rect (at 5.715 4.46) (size 0.5 2.2) (layers F.Cu F.Paste F.Mask))
  (pad 16 smd rect (at 6.985 -4.46) (size 0.5 2.2) (layers F.Cu F.Paste F.Mask))
  (pad 13 smd rect (at 6.985 4.46) (size 0.5 2.2) (layers F.Cu F.Paste F.Mask))
  (pad 15 smd rect (at 8.255 -4.46) (size 0.5 2.2) (layers F.Cu F.Paste F.Mask))
  (pad 14 smd rect (at 8.255 4.46) (size 0.5 2.2) (layers F.Cu F.Paste F.Mask))
  (model ${KICAD_USER_LIB}/benou-library/benou-3D/GW_QFP_SOIC_SSOP_TSSOP_SOT/SOIC-28W_7.5x17.9mm_P1.27mm.wrl
    (at (xyz 0 0 0))
    (scale (xyz 1 1 1))
    (rotate (xyz 0 0 -90))
  )
  (model ${KICAD_USER_3D}/GW_QFP_SOIC_SSOP_TSSOP_SOT/SOIC-28W_7.5x17.9mm_P1.27mm.wrl
    (at (xyz 0 0 0))
    (scale (xyz 1 1 1))
    (rotate (xyz 0 0 -90))
  )
)
