<?xml version="1.0" encoding="UTF-8" standalone="no"?>
<svg
   xmlns:dc="http://purl.org/dc/elements/1.1/"
   xmlns:cc="http://creativecommons.org/ns#"
   xmlns:rdf="http://www.w3.org/1999/02/22-rdf-syntax-ns#"
   xmlns:svg="http://www.w3.org/2000/svg"
   xmlns="http://www.w3.org/2000/svg"
   xmlns:sodipodi="http://sodipodi.sourceforge.net/DTD/sodipodi-0.dtd"
   xmlns:inkscape="http://www.inkscape.org/namespaces/inkscape"
   width="15.0mm"
   height="10.0mm"
   viewBox="0 0 15.0 10.0"
   version="1.1"
   id="svg8"
   sodipodi:docname="benou.svg"
   inkscape:version="1.0.2 (e86c870879, 2021-01-15)">
  <defs
     id="defs2" />
  <sodipodi:namedview
     id="base"
     pagecolor="#ffffff"
     bordercolor="#d10000"
     borderopacity="1"
     inkscape:pageopacity="0.0"
     inkscape:pageshadow="2"
     inkscape:zoom="4.441485"
     inkscape:cx="118.78888"
     inkscape:cy="81.595964"
     inkscape:document-units="mm"
     inkscape:current-layer="g840"
     inkscape:document-rotation="0"
     showgrid="false"
     inkscape:window-width="2560"
     inkscape:window-height="1377"
     inkscape:window-x="-8"
     inkscape:window-y="-8"
     inkscape:window-maximized="1"
     showborder="true"
     inkscape:showpageshadow="false"
     borderlayer="true">
    <inkscape:grid
       type="xygrid"
       id="grid880"
       units="mm"
       spacingx="0.099999999"
       spacingy="0.099999999" />
  </sodipodi:namedview>
  <metadata
     id="metadata5">
    <rdf:RDF>
      <cc:Work
         rdf:about="">
        <dc:format>image/svg+xml</dc:format>
        <dc:type
           rdf:resource="http://purl.org/dc/dcmitype/StillImage" />
        <dc:title />
      </cc:Work>
    </rdf:RDF>
  </metadata>
  <g
     inkscape:label="[fixed] BG"
     inkscape:groupmode="layer"
     sodipodi:insensitive="true"
     id="g838">
    <rect
       x="0"
       y="0"
       width="100.0"
       height="100.0"
       style="fill:#FFFFFF;fill-opacity:1;stroke:none"
       id="rect836" />
  </g>
  <g
     inkscape:label="B.SilkS"
     inkscape:groupmode="layer"
     id="g840">
    <path
       style="fill:#000000;stroke-width:0.00859065"
       d="m 13.252895,7.4080259 c 0.06078,-0.030264 0.07359,-0.054662 0.07324,-0.140058 l -3.05e-4,-0.072258 h 0.05349 c 0.02942,0 0.05588,-0.00469 0.05879,-0.00938 0.0028,-0.00469 0.02158,-0.00938 0.04131,-0.00938 0.0397,-1.877e-4 0.146463,-0.021114 0.173442,-0.033548 0.0094,-0.00469 0.05196,-0.016422 0.0945,-0.026745 0.127858,-0.030968 0.198615,-0.060058 0.234345,-0.096656 0.06928,-0.07085 0.03139,-0.1942514 -0.06409,-0.2085622 -0.03521,-0.00469 -0.147706,0.016422 -0.170251,0.031437 -0.0047,0.00235 -0.03566,0.01173 -0.06872,0.021114 -0.03308,0.00704 -0.08141,0.021114 -0.107377,0.030029 -0.04617,0.014076 -0.174123,0.034252 -0.229794,0.034252 l -0.02792,2.34e-5 V 6.4992204 c 0,-0.4366198 0.0129,-0.8996325 0.0255,-0.915304 0.0038,-0.00469 0.0096,-0.037771 0.01267,-0.073196 0.0094,-0.1036946 0.03066,-0.2519872 0.03892,-0.2705912 0.01009,-0.02346 0.03442,-0.1255127 0.03477,-0.146627 1.48e-4,-0.00938 0.0059,-0.024164 0.0129,-0.033314 0.007,-0.00938 0.01267,-0.02651 0.0129,-0.038709 1.62e-4,-0.01173 0.0059,-0.031671 0.01267,-0.043402 0.0068,-0.01173 0.01243,-0.031437 0.01267,-0.043402 1.76e-4,-0.01173 0.0035,-0.025572 0.0073,-0.030029 0.01009,-0.01173 0.05131,-0.1149555 0.05816,-0.1456885 0.0033,-0.014076 0.01478,-0.043167 0.02581,-0.064516 0.01103,-0.021114 0.05147,-0.1062752 0.0899,-0.1890901 0.03843,-0.082815 0.07833,-0.1618761 0.08866,-0.1761869 0.01032,-0.014076 0.03193,-0.052786 0.04802,-0.085865 0.01619,-0.033079 0.03831,-0.072727 0.04943,-0.087976 0.01103,-0.016422 0.0259,-0.043871 0.03289,-0.063577 0.02182,-0.061701 0.02562,-0.062404 0.0751,-0.00938 0.02461,0.026276 0.05684,0.059824 0.07162,0.074369 0.01478,0.014076 0.03798,0.042463 0.05154,0.061701 0.01361,0.018768 0.04157,0.057478 0.06226,0.084926 0.02065,0.027449 0.05096,0.073431 0.06726,0.1022869 0.01642,0.028856 0.03521,0.058651 0.04204,0.066393 0.01971,0.021114 0.09912,0.1806444 0.107002,0.213958 0.02111,0.088915 0.03343,0.1304394 0.04584,0.1553073 0.0075,0.014076 0.01384,0.037067 0.01384,0.048563 0,0.01173 0.01126,0.031906 0.0251,0.045982 0.05105,0.051144 0.146697,0.02346 0.146697,-0.042698 0,-0.014076 0.0033,-0.027683 0.0075,-0.030264 0.01572,-0.00938 0.02065,-0.1745447 0.0061,-0.2038701 -0.0075,-0.014076 -0.01361,-0.036129 -0.01361,-0.046921 0,-0.044575 -0.179612,-0.3807374 -0.254185,-0.4759394 -0.02323,-0.02956 -0.05326,-0.069677 -0.06677,-0.089149 -0.02602,-0.037536 -0.06747,-0.082346 -0.162416,-0.1764215 l -0.05814,-0.057478 0.02578,-0.046686 c 0.05485,-0.099472 0.03012,-0.1729025 -0.06224,-0.184398 -0.06473,-0.00704 -0.102967,0.00469 -0.132762,0.047859 -0.02944,0.041759 -0.03153,0.041759 -0.09344,-3.754e-4 -0.0278,-0.018768 -0.05635,-0.034487 -0.06344,-0.034487 -0.007,-4.69e-5 -0.04767,-0.01173 -0.09021,-0.027683 -0.105079,-0.037302 -0.371457,-0.042932 -0.42625,-0.00938 -0.01713,0.01173 -0.04028,0.018768 -0.05154,0.018768 -0.01126,1.173e-4 -0.03979,0.01173 -0.06341,0.025103 -0.02363,0.014076 -0.05675,0.03261 -0.0736,0.042229 -0.01689,0.00938 -0.03568,0.02346 -0.04185,0.030733 -0.0061,0.00704 -0.01572,0.014076 -0.02135,0.014076 -0.0056,0 -0.03369,0.021114 -0.06255,0.045044 -0.178064,0.1529613 -0.262589,0.373324 -0.226158,0.5892292 0.0096,0.056539 0.04293,0.1550727 0.06011,0.17736 0.0038,0.00469 0.01126,0.02346 0.01713,0.041055 0.0059,0.018768 0.01994,0.043871 0.03181,0.057712 0.03186,0.037771 0.02135,0.042932 -0.08992,0.043167 -0.11573,3.754e-4 -0.242395,0.016422 -0.340973,0.041525 -0.03779,0.00938 -0.07573,0.018768 -0.08432,0.018768 -0.0087,4.7e-5 -0.03369,0.00704 -0.05584,0.016422 -0.02205,0.00938 -0.08084,0.028856 -0.130462,0.043871 -0.04962,0.014076 -0.103742,0.034252 -0.120281,0.042229 -0.105572,0.051613 -0.125865,0.060528 -0.13478,0.060528 -0.0054,0 -0.02158,0.00938 -0.03561,0.021114 -0.01408,0.01173 -0.03857,0.027448 -0.05436,0.034487 -0.01572,0.00704 -0.04608,0.026276 -0.06736,0.042229 -0.02135,0.016422 -0.06489,0.047624 -0.09698,0.069912 -0.05724,0.039648 -0.29819,0.2802334 -0.29819,0.2977348 0,0.00469 -0.0183,0.030029 -0.0408,0.055836 -0.05138,0.05912 -0.08542,0.1043984 -0.09555,0.1269203 -0.0042,0.00938 -0.01408,0.02346 -0.02158,0.028856 -0.0075,0.00704 -0.01384,0.016422 -0.01384,0.021114 0,0.00704 -0.0077,0.021114 -0.01736,0.032844 -0.0096,0.01173 -0.03371,0.053959 -0.0537,0.092903 -0.04641,0.090322 -0.05398,0.092434 -0.06144,0.016422 -0.0033,-0.033079 -0.0091,-0.06217 -0.0129,-0.064516 -0.0038,-0.00235 -0.0096,-0.024399 -0.0129,-0.048797 -0.0033,-0.024633 -0.01126,-0.064281 -0.01783,-0.088211 -0.04455,-0.1618761 -0.05964,-0.2106736 -0.07392,-0.2387321 -0.0089,-0.016422 -0.01619,-0.036364 -0.01619,-0.041759 0,-0.00469 -0.0054,-0.021114 -0.01173,-0.036833 -0.0066,-0.014076 -0.01853,-0.046451 -0.02691,-0.069912 -0.0082,-0.023695 -0.02182,-0.050674 -0.03008,-0.060058 -0.0082,-0.00938 -0.02276,-0.03519 -0.03242,-0.057243 -0.04722,-0.1088645 -0.179629,-0.2397261 -0.311225,-0.3078548 l -0.09006,-0.046686 -0.120281,4.69e-5 c -0.126545,4.69e-5 -0.164316,0.00704 -0.2279169,0.039413 -0.2833185,0.1461577 -0.3565662,0.4558808 -0.1746855,0.7384133 0.034909,0.054193 0.081055,0.1020523 0.098463,0.1020523 0.00446,0 0.024539,0.014076 0.044575,0.033548 0.039155,0.036129 0.2368654,0.1381812 0.2675814,0.1381812 0.01032,0 0.02252,0.00469 0.02721,0.00938 0.02088,0.021114 0.240221,0.029091 0.279923,0.00938 0.02041,-0.00938 0.05248,-0.021114 0.07139,-0.02346 0.03974,-0.00704 0.06442,-0.025806 0.06442,-0.049501 0,-0.034487 0.02088,-0.00704 0.032,0.04129 0.02358,0.1029908 0.02907,0.175014 0.02618,0.3431071 -0.003,0.183225 -0.0017,0.1759523 -0.05443,0.2703801 -0.01877,0.033548 -0.122556,0.1461577 -0.134732,0.1461577 -0.0042,0 -0.024,0.014076 -0.04368,0.028622 -0.04863,0.038944 -0.08856,0.060762 -0.134592,0.074135 -0.02135,0.00704 -0.05025,0.016422 -0.06442,0.021114 -0.08833,0.03824 -0.4803282,0.067096 -0.4990355,0.036833 -0.00258,-0.00469 -0.013607,-0.00704 -0.024868,-0.00704 -0.011261,0 -0.048657,-0.014076 -0.083261,-0.028856 C 9.6352585,6.5523346 9.6023671,6.538493 9.5967601,6.5366161 9.5649479,6.527232 9.4238576,6.3848279 9.4050894,6.3449454 9.4027433,6.3402533 9.3828021,6.3088165 9.3607259,6.2757375 9.3386732,6.2426585 9.304515,6.1788464 9.2848083,6.1340372 9.2651017,6.089228 9.2420871,6.0369115 9.2336883,6.0181433 9.2121048,5.9695804 9.1923513,5.9097566 9.1683279,5.8206075 9.1568323,5.7781443 9.1439996,5.7356811 9.1396594,5.7260624 9.1354365,5.7166783 9.1272254,5.6894643 9.1213604,5.666004 9.1098648,5.6188488 9.0891024,5.5498755 9.052387,5.438439 c -0.013138,-0.040117 -0.02651,-0.084692 -0.02956,-0.098768 -0.00305,-0.014076 -0.015249,-0.046921 -0.027097,-0.072962 -0.011965,-0.026041 -0.028434,-0.062639 -0.036809,-0.081642 -0.00845,-0.018768 -0.025079,-0.055601 -0.037138,-0.081642 -0.011965,-0.026041 -0.031718,-0.069443 -0.043707,-0.096656 -0.011965,-0.026979 -0.031413,-0.061935 -0.043143,-0.077185 -0.01173,-0.016422 -0.023859,-0.038006 -0.026909,-0.05044 -0.018768,-0.075308 -0.1638233,-0.16258 -0.2505256,-0.1506152 -0.09044,0.01173 -0.204832,0.1196476 -0.2624434,0.2459813 -0.018299,0.040117 -0.039038,0.084692 -0.046053,0.098768 -0.00704,0.014076 -0.022053,0.062404 -0.033454,0.1074483 -0.011261,0.044809 -0.026745,0.1039292 -0.034135,0.1313777 -0.00751,0.027449 -0.013372,0.057478 -0.013372,0.066627 0,0.00938 -0.00587,0.016422 -0.012903,0.016422 -0.00821,0 -0.012903,-0.00938 -0.012903,-0.023695 -2.58e-5,-0.014076 -0.00587,-0.034721 -0.012903,-0.048094 -0.00704,-0.014076 -0.012903,-0.02956 -0.012903,-0.035425 0,-0.00704 -0.013842,-0.050909 -0.030756,-0.099941 -0.016891,-0.049032 -0.034323,-0.1036946 -0.03871,-0.1215244 -0.00751,-0.030029 -0.077044,-0.1923746 -0.09485,-0.2209962 -0.00446,-0.00704 -0.014545,-0.02393 -0.022757,-0.037067 -0.00821,-0.014076 -0.03024,-0.045044 -0.049149,-0.070615 -0.019003,-0.025337 -0.04129,-0.05607 -0.049736,-0.068035 C 7.8100603,4.6406711 7.7078672,4.5747476 7.6651695,4.5627829 7.5557506,4.5325191 7.4331001,4.5604368 7.3126103,4.6404365 7.2567747,4.677973 7.0769937,4.8722244 7.0769937,4.8950043 c 0,0.00469 -0.011496,0.02346 -0.025783,0.040586 -0.014076,0.018768 -0.025783,0.038006 -0.025783,0.044809 0,0.00704 -0.011026,0.034252 -0.024751,0.060997 -0.05234,0.1032254 -0.1169028,0.253864 -0.1253954,0.2926674 -0.00352,0.016422 -0.015484,0.048797 -0.026839,0.072961 -0.011261,0.024164 -0.020411,0.051143 -0.020645,0.059824 -4.22e-5,0.00938 -0.0054,0.028152 -0.011965,0.042932 -0.00657,0.014076 -0.016657,0.050205 -0.022287,0.078592 -0.00563,0.028387 -0.015953,0.062874 -0.022757,0.07695 -0.0068,0.014076 -0.020176,0.057712 -0.029701,0.09736 -0.00962,0.039648 -0.02088,0.078592 -0.024891,0.086334 -0.00399,0.00704 -0.013841,0.037536 -0.021818,0.065689 -0.00798,0.028387 -0.021584,0.07085 -0.030475,0.094545 -0.00891,0.023695 -0.018768,0.054428 -0.022287,0.068739 -0.00328,0.014076 -0.024704,0.067331 -0.047554,0.1180054 -0.022756,0.050674 -0.041572,0.095249 -0.041572,0.098768 -1.22e-4,0.03824 -0.08692,0.1271549 -0.1493953,0.1527266 -0.1011139,0.041525 -0.1121403,0.1578879 -0.02041,0.2158349 0.047108,0.029795 0.1329495,0.031671 0.178791,0.00469 0.016422,-0.00938 0.035519,-0.021114 0.042604,-0.02346 0.020176,-0.00938 0.1116711,-0.1001755 0.1116711,-0.111671 0,-0.00469 0.00985,-0.021114 0.021818,-0.036364 0.011965,-0.014076 0.035331,-0.05607 0.051871,-0.092903 0.016657,-0.036833 0.0339,-0.0739 0.038545,-0.082346 0.00469,-0.00938 0.016657,-0.037302 0.026581,-0.064516 0.010088,-0.026979 0.021114,-0.05302 0.024586,-0.057712 0.00352,-0.00469 0.00915,-0.021114 0.012434,-0.03871 0.00328,-0.016422 0.013372,-0.045748 0.022522,-0.06522 0.015249,-0.032141 0.024798,-0.064281 0.079742,-0.2656177 0.010323,-0.037771 0.022991,-0.076481 0.028059,-0.085865 0.00516,-0.00938 0.016188,-0.046217 0.024516,-0.081642 0.00845,-0.035425 0.018064,-0.06827 0.021584,-0.072962 0.00352,-0.00469 0.010792,-0.029795 0.016422,-0.055601 0.0054,-0.026041 0.015015,-0.054897 0.021114,-0.064516 0.0061,-0.00938 0.015718,-0.035894 0.021349,-0.058651 0.00563,-0.02346 0.01783,-0.055601 0.027191,-0.072962 0.00938,-0.016422 0.016891,-0.034487 0.016891,-0.038006 0,-0.016422 0.099167,-0.2193539 0.1173719,-0.2413832 0.011026,-0.014076 0.020176,-0.028152 0.020176,-0.033079 0,-0.026041 0.096117,-0.1295009 0.1571841,-0.1691488 0.1244804,-0.080938 0.1676473,-0.052317 0.2880503,0.1921399 0.018534,0.037771 0.038756,0.087976 0.044739,0.1116711 0.00587,0.023695 0.015484,0.052551 0.021114,0.064516 0.013607,0.028387 0.038592,0.1067445 0.038663,0.1215245 2.58e-5,0.00704 0.0054,0.021114 0.011965,0.034721 0.00657,0.01173 0.014545,0.039648 0.01783,0.060058 0.0068,0.042698 0.02041,0.098064 0.030311,0.1231666 0.00375,0.00938 0.013138,0.048094 0.02088,0.085865 0.00774,0.037771 0.017595,0.080234 0.021818,0.094545 0.011496,0.038475 0.032797,0.163753 0.03946,0.2320225 0.00328,0.033079 0.00962,0.067566 0.014311,0.076481 0.00469,0.00938 0.011026,0.1360698 0.014076,0.2851601 l 0.0054,0.2688552 0.028434,0.029325 c 0.058182,0.060058 0.127413,0.061231 0.1885505,0.00235 0.036504,-0.034487 0.044762,-0.067566 0.045724,-0.182052 7.624e-4,-0.088915 0.00375,-0.1285625 0.024188,-0.3178403 0.00469,-0.042463 0.013138,-0.1248089 0.019003,-0.1829904 0.00587,-0.058182 0.013842,-0.1076829 0.01783,-0.1100289 0.00375,-0.00235 0.00727,-0.02346 0.00727,-0.044575 5.912e-4,-0.083753 0.060387,-0.4042915 0.099659,-0.5342617 0.048751,-0.1614069 0.1234247,-0.3047494 0.1234247,-0.2369022 0,0.00704 0.00868,0.02346 0.019238,0.036598 0.021114,0.02651 0.030334,0.045044 0.1084805,0.2179463 0.028927,0.064047 0.052598,0.1231666 0.052598,0.1316123 0,0.00938 0.00727,0.033314 0.016422,0.055366 0.018064,0.04434 0.063601,0.1900285 0.078451,0.2507203 0.015484,0.063343 0.04312,0.1550727 0.0659,0.2191193 0.01173,0.033079 0.025079,0.075308 0.029583,0.094076 0.00938,0.039413 0.043003,0.1187092 0.1241989,0.2942392 0.011261,0.024633 0.024539,0.046921 0.029325,0.049971 0.00469,0.00235 0.016657,0.021114 0.026534,0.040352 0.00985,0.018768 0.021349,0.039179 0.025736,0.044575 0.00422,0.00469 0.023953,0.030733 0.043589,0.056774 0.088023,0.1165978 0.2149433,0.2294419 0.2954122,0.2626617 0.018534,0.00704 0.053161,0.02346 0.076786,0.034252 0.1202575,0.056539 0.4660928,0.08563 0.5583908,0.047155 0.0094,-0.00469 0.05004,-0.01173 0.09021,-0.016422 0.07184,-0.00938 0.125067,-0.021114 0.15892,-0.034721 0.07815,-0.030498 0.187518,-0.083284 0.199037,-0.096187 0.0077,-0.00938 0.0176,-0.016422 0.02182,-0.016422 0.02846,0 0.238763,-0.2022279 0.258878,-0.2490547 0.0052,-0.01173 0.01783,-0.032141 0.02827,-0.045044 l 0.019,-0.02346 0.01501,0.038944 c 0.0082,0.021114 0.0259,0.05302 0.03932,0.069912 0.01337,0.016422 0.0244,0.034252 0.0244,0.038475 0,0.054193 0.374051,0.3935232 0.433882,0.3935232 0.0033,0 0.0176,0.00938 0.03158,0.021114 0.01408,0.01173 0.03587,0.023929 0.04849,0.026745 0.01267,0.00235 0.03843,0.014076 0.05734,0.024633 0.019,0.01173 0.05562,0.024164 0.08162,0.030264 0.02599,0.00704 0.05112,0.014076 0.05584,0.016422 0.0047,0.00469 0.03951,0.014076 0.07733,0.024399 0.0378,0.00938 0.08999,0.02346 0.115965,0.029795 0.02599,0.00704 0.08591,0.016422 0.13316,0.02346 0.04725,0.00469 0.09363,0.014076 0.103085,0.016422 0.02348,0.00938 0.172152,0.024633 0.32032,0.031437 0.0675,0.00235 0.124762,0.00938 0.127225,0.014076 0.0026,0.00469 0.111953,0.00704 0.243326,0.00704 h 0.238849 l 0.0056,0.055835 c 0.0087,0.085161 0.0442,0.150146 0.08202,0.1503806 0.0073,2.34e-5 0.02449,0.00469 0.03803,0.01173 0.01361,0.00704 0.02513,0.01173 0.02578,0.01173 6.29e-4,-1.642e-4 0.0183,-0.00938 0.0393,-0.018768 z m -0.733703,-0.487904 c -0.145595,-0.00938 -0.210908,-0.016422 -0.382562,-0.041759 -0.02599,-0.00469 -0.07906,-0.01173 -0.117935,-0.016422 -0.03887,-0.00469 -0.07754,-0.01173 -0.08591,-0.016422 -0.0084,-0.00469 -0.04228,-0.014076 -0.07536,-0.02346 -0.03308,-0.00704 -0.07585,-0.021114 -0.09506,-0.030968 -0.01924,-0.00938 -0.04153,-0.016422 -0.0496,-0.016422 -0.01924,0 -0.121947,-0.046686 -0.12943,-0.058885 -0.0033,-0.00469 -0.02372,-0.016422 -0.04558,-0.026979 -0.02182,-0.00938 -0.05553,-0.030264 -0.07482,-0.045748 -0.01924,-0.016422 -0.04575,-0.034721 -0.05884,-0.043167 -0.03102,-0.018768 -0.152305,-0.1409965 -0.152305,-0.1522574 0,-0.00469 -0.01619,-0.030968 -0.03622,-0.057947 -0.06998,-0.09478 -0.09382,-0.3287493 -0.04085,-0.4012417 0.0035,-0.00469 0.01267,-0.030498 0.02041,-0.057478 0.0077,-0.026979 0.01736,-0.050909 0.02111,-0.053489 0.004,-0.00235 0.01994,-0.030733 0.03568,-0.062639 0.01572,-0.032141 0.03756,-0.070381 0.04859,-0.084926 0.01103,-0.014076 0.01994,-0.029795 0.01994,-0.033548 0,-0.00469 0.01361,-0.02346 0.03008,-0.043636 0.01642,-0.021114 0.03008,-0.040821 0.03008,-0.045982 0,-0.00469 0.0183,-0.029795 0.0408,-0.055132 0.02252,-0.025337 0.0582,-0.068504 0.07946,-0.095953 0.05335,-0.068973 0.140644,-0.1550727 0.209266,-0.2062162 0.05436,-0.040586 0.07329,-0.053255 0.141864,-0.094545 0.01572,-0.00938 0.0422,-0.027918 0.05893,-0.040821 0.01666,-0.014076 0.03526,-0.023695 0.04117,-0.023695 0.0059,0 0.03648,-0.01173 0.06794,-0.026745 0.03146,-0.014076 0.06958,-0.030029 0.08472,-0.034018 0.04554,-0.01173 0.137501,-0.042932 0.164973,-0.055366 0.01408,-0.00704 0.0393,-0.014076 0.05584,-0.016422 0.04636,-0.00704 0.105548,-0.02346 0.124551,-0.030498 0.02557,-0.01173 0.202861,-0.024633 0.378337,-0.029325 0.170744,-0.00469 0.22163,-0.018768 0.271971,-0.071319 0.04636,-0.049032 0.05229,-0.1398234 0.01314,-0.1994126 -0.01056,-0.016422 -0.02299,-0.035425 -0.02768,-0.043167 -0.0047,-0.00704 -0.02902,-0.039648 -0.05396,-0.071085 -0.04507,-0.056539 -0.09638,-0.1550727 -0.09638,-0.1851019 0,-0.00938 -0.0047,-0.021114 -0.01009,-0.025806 -0.01267,-0.01173 -0.01361,-0.1398235 -0.0011,-0.1670375 0.0049,-0.01173 0.01783,-0.039883 0.02881,-0.06475 0.01079,-0.024868 0.02684,-0.051613 0.0355,-0.059355 0.0087,-0.00704 0.01572,-0.018768 0.01572,-0.024633 0,-0.024399 0.143906,-0.1299701 0.206404,-0.151319 0.01642,-0.00469 0.03756,-0.014076 0.04701,-0.021114 0.02445,-0.016422 0.153853,-0.02346 0.21478,-0.014076 0.07847,0.01173 0.240958,0.072962 0.234204,0.086569 -0.0252,0.051143 -0.05431,0.1025215 -0.06475,0.1144863 -0.01619,0.018768 -0.02677,0.036364 -0.06463,0.1102634 -0.01595,0.031202 -0.04127,0.074369 -0.05621,0.095953 -0.01501,0.021114 -0.02714,0.041994 -0.02714,0.045278 0,0.00235 -0.02585,0.060528 -0.05745,0.1273895 -0.0316,0.066862 -0.0762,0.1621107 -0.09912,0.211612 -0.02299,0.049501 -0.04732,0.1011139 -0.05422,0.1144863 -0.0068,0.014076 -0.01267,0.030733 -0.01267,0.03871 -2e-6,0.00704 -0.0115,0.038944 -0.02578,0.068739 -0.01408,0.030029 -0.0259,0.062874 -0.02606,0.072962 -1.74e-4,0.00938 -0.0059,0.028152 -0.01267,0.040117 -0.0068,0.01173 -0.01243,0.030264 -0.01267,0.041056 -1.76e-4,0.01173 -0.0056,0.028152 -0.0122,0.038709 -0.0066,0.00938 -0.01455,0.03824 -0.0176,0.061935 -0.003,0.023695 -0.0087,0.052551 -0.01267,0.064516 -0.02182,0.066862 -0.02703,0.089618 -0.03911,0.1712602 -0.0073,0.049267 -0.01337,0.1055714 -0.01337,0.1250435 0,0.018768 -0.0035,0.039179 -0.0077,0.043636 -0.0183,0.018768 -0.02806,0.2727026 -0.03256,0.8479025 l -0.0047,0.6077863 h -0.185454 c -0.102005,0 -0.259034,-0.00469 -0.348958,-0.00938 z m -1.89979,-1.3738828 c -0.01103,-0.01173 -0.141325,-0.034252 -0.19275,-0.034252 -0.02158,-2.35e-5 -0.04277,-0.00235 -0.04725,-0.00704 -0.0045,-0.00469 -0.03604,-0.014076 -0.0701,-0.021114 -0.07601,-0.016422 -0.138956,-0.047859 -0.196692,-0.097126 -0.02414,-0.021114 -0.04753,-0.037536 -0.05201,-0.037536 -0.04472,0 -0.1080109,-0.1245742 -0.1069559,-0.210439 0.0038,-0.312984 0.4081139,-0.3131013 0.5386719,-9.38e-5 0.0099,0.023695 0.02825,0.058181 0.0408,0.076481 0.01267,0.018768 0.02276,0.038944 0.02276,0.045748 0,0.00704 0.0082,0.032375 0.01807,0.056774 0.02696,0.066393 0.02977,0.074369 0.04601,0.1304394 0.0082,0.028387 0.01853,0.058181 0.02276,0.066393 0.01689,0.03261 1.17e-4,0.055601 -0.02323,0.032141 z M 0.76261815,7.3964365 c 0.007038,-0.00235 0.0244926,-0.00938 0.0386626,-0.016422 0.0140762,-0.00704 0.0586273,-0.018768 0.0987914,-0.029795 0.086029,-0.021114 0.16753005,-0.048094 0.19758275,-0.064516 0.01173,-0.00704 0.041501,-0.021114 0.06597,-0.030029 0.024469,-0.00938 0.051167,-0.025806 0.059308,-0.034721 0.00821,-0.00938 0.020176,-0.016422 0.026839,-0.016422 0.015484,0 0.2912785,-0.274556 0.3029711,-0.3016292 0.00493,-0.01173 0.022287,-0.038006 0.038592,-0.05912 0.02712,-0.035191 0.043495,-0.065924 0.1036946,-0.193313 0.011261,-0.023695 0.026276,-0.066158 0.033572,-0.094545 0.00727,-0.028387 0.017126,-0.061231 0.022053,-0.072962 0.00469,-0.01173 0.01173,-0.06217 0.015249,-0.1116711 l 0.00657,-0.090322 0.034158,0.063108 c 0.018768,0.034721 0.042815,0.075308 0.053419,0.090088 0.010557,0.014076 0.025173,0.038709 0.032399,0.05302 0.00727,0.014076 0.02658,0.043167 0.043026,0.064516 0.016422,0.021114 0.034604,0.048328 0.040399,0.060058 0.00587,0.01173 0.039601,0.057712 0.075167,0.1020524 0.035566,0.04434 0.070451,0.088915 0.077536,0.099237 0.048094,0.070381 0.2314126,0.2172425 0.3231611,0.2590018 0.2147792,0.097829 0.5428834,0.057243 0.7129307,-0.088211 0.052129,-0.044575 0.1694304,-0.1858057 0.1787441,-0.2151311 0.00305,-0.00938 0.017126,-0.032375 0.031132,-0.049971 0.014076,-0.016422 0.025431,-0.037771 0.025431,-0.044809 0,-0.00704 0.00727,-0.024868 0.016188,-0.039648 0.00891,-0.014076 0.019003,-0.039648 0.022287,-0.055601 0.00328,-0.016422 0.013372,-0.045278 0.022287,-0.06522 0.042721,-0.096656 0.04183,-0.7804541 -0.00114,-0.8766649 -0.00422,-0.00938 -0.013372,-0.050909 -0.02041,-0.091964 -0.00704,-0.041056 -0.016657,-0.082346 -0.021818,-0.09173 -0.013842,-0.025572 0.00422,-0.030968 0.031836,-0.00938 0.082111,0.064047 0.1244804,0.093137 0.149583,0.1032253 0.015718,0.00704 0.034393,0.016422 0.041501,0.021114 0.011261,0.00938 0.065407,0.03871 0.1932425,0.1041638 0.058956,0.030264 0.093137,0.044105 0.1331608,0.054428 0.021349,0.00469 0.05302,0.016422 0.070545,0.025337 0.017595,0.00938 0.051378,0.021114 0.075167,0.025806 0.030053,0.00704 0.043355,0.014076 0.043542,0.024633 5.513e-4,0.029795 0.017126,0.1426387 0.024657,0.1679758 0.00422,0.014076 0.014545,0.049736 0.022522,0.078123 0.00798,0.028387 0.018064,0.059355 0.022053,0.068739 0.00399,0.00938 0.015249,0.038709 0.024774,0.064985 0.00962,0.026276 0.031273,0.070616 0.048187,0.098768 0.016891,0.028152 0.036199,0.064047 0.042839,0.079765 0.00657,0.016422 0.021818,0.040352 0.033642,0.054428 0.011965,0.014076 0.021583,0.02956 0.021583,0.034252 0,0.00469 0.016422,0.029325 0.036504,0.054428 0.020176,0.025337 0.050041,0.066158 0.06658,0.090557 0.074041,0.1097943 0.313648,0.359975 0.3666636,0.3827785 0.015015,0.00704 0.029818,0.016422 0.032844,0.021114 0.015953,0.026041 0.2108613,0.099472 0.2967964,0.1119057 0.07017,0.00938 0.298685,0.00469 0.3560501,-0.00938 0.019003,-0.00469 0.051355,-0.01173 0.072141,-0.016422 0.02088,-0.00469 0.057501,-0.016422 0.081618,-0.028387 0.024094,-0.01173 0.052762,-0.02346 0.063695,-0.02651 0.011026,-0.00235 0.04495,-0.025102 0.075636,-0.048328 0.030663,-0.02346 0.058299,-0.042229 0.061419,-0.042229 0.00845,0 0.079343,-0.071085 0.079343,-0.079765 0,-0.00469 0.017126,-0.028387 0.037888,-0.053959 0.02088,-0.025572 0.044692,-0.064985 0.05302,-0.087507 0.00821,-0.02346 0.018299,-0.045278 0.022287,-0.05044 0.00399,-0.00469 0.019003,-0.043871 0.033642,-0.085865 l 0.026463,-0.076246 -0.00282,-0.2800223 c -0.00197,-0.1893304 -0.0061,-0.2839458 -0.012432,-0.2920866 -0.0054,-0.00704 -0.014311,-0.044809 -0.020176,-0.085161 -0.00587,-0.040117 -0.017361,-0.088445 -0.025713,-0.1074482 -0.00821,-0.018768 -0.019941,-0.051847 -0.025783,-0.072962 -0.00587,-0.021114 -0.019472,-0.057947 -0.030217,-0.081642 -0.010792,-0.023695 -0.039789,-0.087507 -0.064516,-0.1417002 -0.024727,-0.054428 -0.053818,-0.1083867 -0.064657,-0.1203514 -0.010792,-0.01173 -0.025806,-0.034956 -0.033267,-0.051613 -0.00751,-0.016422 -0.027144,-0.04739 -0.043707,-0.068739 -0.016657,-0.021114 -0.034158,-0.047859 -0.039061,-0.059355 -0.00493,-0.01173 -0.02346,-0.038475 -0.041103,-0.060058 -0.017595,-0.021114 -0.04366,-0.057009 -0.057642,-0.078123 -0.060551,-0.091964 -0.2056296,-0.2444799 -0.250413,-0.2631778 -0.08122,-0.034018 -0.1746151,0.018768 -0.1746151,0.099706 0,0.025103 -0.00352,0.02346 -0.067589,-0.034721 -0.095085,-0.086099 -0.2436565,-0.1248088 -0.3619387,-0.094076 -0.1313777,0.034252 -0.209266,0.06522 -0.2519356,0.1004101 -0.013372,0.01173 -0.028833,0.021114 -0.034369,0.021114 -0.013138,0 -0.2119405,0.1935476 -0.2119405,0.2064507 0,0.00469 -0.012903,0.025806 -0.028622,0.045513 -0.083542,0.1046329 -0.1466504,0.252949 -0.1576298,0.3706963 -0.00446,0.047155 -0.00774,0.056539 -0.019003,0.05302 C 4.0246453,5.4749902 3.9680356,5.4505914 3.8596091,5.390533 3.831269,5.3741108 3.7887355,5.3513543 3.7651109,5.3384511 3.684079,5.2938766 3.5785076,5.2195074 3.5246944,5.1690677 c -0.02963,-0.027683 -0.057525,-0.05044 -0.062006,-0.05044 -0.012669,0 -0.2173129,-0.2224037 -0.2173129,-0.2363391 0,-0.00704 -0.034979,-0.088211 -0.073994,-0.1717295 -0.045935,-0.098299 -0.072047,-0.1574187 -0.072047,-0.1632838 0,-0.00704 -0.016422,-0.027214 -0.071225,-0.092434 -0.1066741,-0.1266857 -0.2998674,-0.00235 -0.2345797,0.1499114 0.093841,0.2200577 0.1076125,0.2472717 0.1771957,0.3503563 0.035871,0.05302 0.076973,0.138885 0.077255,0.1614069 1.009e-4,0.00704 0.00751,0.030733 0.016188,0.04997 0.00891,0.018768 0.022522,0.063812 0.030428,0.098533 0.00798,0.034721 0.017361,0.067331 0.021114,0.072023 0.00375,0.00469 0.013138,0.039648 0.021114,0.077654 0.00798,0.037771 0.018768,0.080234 0.02407,0.094545 0.00516,0.014076 0.017126,0.072258 0.02651,0.1287971 0.00938,0.056774 0.020645,0.1102635 0.02529,0.1191784 0.027026,0.052316 0.026886,0.6361263 -1.666e-4,0.6694869 -0.00446,0.00469 -0.015249,0.035425 -0.023718,0.066158 -0.00845,0.030733 -0.030147,0.077654 -0.048164,0.1041638 -0.018064,0.02651 -0.032774,0.051378 -0.032774,0.054897 0,0.039883 -0.1343103,0.1595301 -0.1975828,0.1761869 -0.021349,0.00469 -0.044575,0.014076 -0.051777,0.016422 C 2.7179388,6.9158521 2.4912958,6.8351486 2.3433645,6.6629499 2.289828,6.6003109 2.2446435,6.5423639 2.2374177,6.5271147 2.2341333,6.5200766 2.2198225,6.4987277 2.2055586,6.4799595 2.1093713,6.3516316 2.0308731,6.2153741 1.9532148,6.0418382 1.9096959,5.9447125 1.9051681,5.9334516 1.9051681,5.9228944 c 0,-0.00704 -0.00727,-0.026275 -0.015953,-0.044809 -0.00891,-0.018768 -0.018768,-0.049267 -0.022287,-0.068269 -0.00328,-0.018768 -0.011496,-0.045982 -0.01783,-0.060058 -0.01478,-0.03261 -0.038381,-0.1485038 -0.038381,-0.1886209 0,-0.016422 -0.00375,-0.037302 -0.00821,-0.045513 -0.00446,-0.00938 -0.011965,-0.06522 -0.016892,-0.1266857 -0.01525,-0.1923756 -0.044505,-0.2404458 -0.1468154,-0.2405162 -0.055437,-2.34e-5 -0.06095,0.00171 -0.088844,0.028856 -0.055624,0.053959 -0.058275,0.071319 -0.052973,0.3501686 0.00892,0.4653353 0.00774,0.8300024 -0.00235,0.879574 -0.016188,0.078592 -0.024633,0.108152 -0.038076,0.134193 -0.00704,0.014076 -0.023226,0.04739 -0.035777,0.074838 -0.080211,0.1752485 -0.3818259,0.4524555 -0.49230759,0.4524555 -0.008915,0 -0.0199413,0.00235 -0.024516,0.00704 -0.004457,0.00469 -0.0352139,0.014076 -0.068293,0.021114 -0.0970788,0.02346 -0.1780403,0.057243 -0.21046245,0.088211 -0.0930201,0.088915 0.0178298,0.2599402 0.13745396,0.2120812 z M 5.2001148,6.8425151 c -0.00446,-0.00469 -0.01478,-0.00704 -0.022991,-0.00704 -0.015953,0 -0.1183103,-0.047624 -0.1768438,-0.08258 C 4.96394,6.7317811 4.7658646,6.5304913 4.7658646,6.5151952 c 0,-0.00469 -0.014545,-0.026041 -0.032563,-0.048094 C 4.5790265,6.2782477 4.4394095,6.0034571 4.4394095,5.8886893 v -0.02346 l 0.1310024,0.00469 c 0.1372194,0.00469 0.3526742,-0.00704 0.3700137,-0.021114 0.00563,-0.00469 0.037185,-0.014076 0.070264,-0.02346 0.033079,-0.00704 0.072446,-0.024164 0.087484,-0.035425 0.015015,-0.01173 0.030498,-0.021114 0.034369,-0.021114 0.035871,-2.35e-5 0.1862279,-0.161407 0.2221926,-0.2383802 0.011496,-0.024868 0.030897,-0.066158 0.042909,-0.09173 0.037419,-0.08 0.037443,-0.268081 0,-0.3527493 -0.017595,-0.039883 -0.023742,-0.064516 -0.015953,-0.064047 0.00751,3.753e-4 0.06285,0.072492 0.06285,0.082111 0,0.00235 0.014545,0.021114 0.032211,0.042228 0.03939,0.044575 0.086498,0.1072136 0.1095362,0.1454539 0.00938,0.016422 0.028786,0.045044 0.042956,0.06522 0.044457,0.063578 0.071789,0.1128441 0.1161989,0.2099698 0.061583,0.1346622 0.077091,0.1714949 0.077138,0.1836942 0,0.00704 0.00563,0.024633 0.012669,0.038006 0.012669,0.024164 0.031765,0.1067444 0.049196,0.2120812 0.012903,0.077419 0.018534,0.4555524 0.00704,0.4670245 -0.00493,0.00469 -0.00891,0.016422 -0.00891,0.025337 0,0.00938 -0.015015,0.048563 -0.033454,0.087742 -0.060363,0.1287971 -0.1908496,0.2327262 -0.3126297,0.2491954 -0.024633,0.00235 -0.048844,0.00938 -0.053818,0.014076 -0.019941,0.016422 -0.2651437,0.014076 -0.2826334,-0.00171 z m -0.7537821,-1.2469155 -0.034792,-0.01173 0.00493,-0.071789 c 0.00282,-0.039413 0.00868,-0.076246 0.013138,-0.081642 0.00446,-0.00469 0.012669,-0.027214 0.018299,-0.048563 0.00563,-0.021114 0.016891,-0.046451 0.024962,-0.055836 0.00821,-0.00938 0.019003,-0.026979 0.024023,-0.038944 0.023648,-0.055835 0.1315419,-0.1829904 0.1873305,-0.2205269 0.019003,-0.01173 0.042088,-0.029795 0.051542,-0.038006 0.018065,-0.016422 0.073947,-0.036364 0.1245508,-0.045982 0.016422,-0.00235 0.042792,-0.00938 0.058346,-0.016422 0.021584,-0.00704 0.032235,-0.00704 0.044973,7.742e-4 0.00915,0.00469 0.023695,0.00938 0.032188,0.00938 0.015953,0 0.078146,0.060762 0.1116711,0.1090904 0.056352,0.081407 0.071906,0.195659 0.037185,0.273125 -0.037818,0.084457 -0.1110142,0.1761869 -0.1404569,0.1761869 -0.00516,0 -0.015484,0.00469 -0.022991,0.01173 -0.062827,0.054428 -0.4095795,0.084223 -0.5349678,0.046217 z"
       id="path879" />
  </g>
  <g
     inkscape:label="F.SilkS"
     inkscape:groupmode="layer"
     id="g842" />
</svg>
