<?xml version="1.0" encoding="UTF-8" standalone="no"?>
<!-- Created with Inkscape (http://www.inkscape.org/) -->

<svg
   width="10mm"
   height="10mm"
   viewBox="0 0 9.9999999 10"
   version="1.1"
   id="svg5"
   inkscape:version="1.2.1 (9c6d41e410, 2022-07-14)"
   sodipodi:docname="EMISSA.svg"
   xmlns:inkscape="http://www.inkscape.org/namespaces/inkscape"
   xmlns:sodipodi="http://sodipodi.sourceforge.net/DTD/sodipodi-0.dtd"
   xmlns="http://www.w3.org/2000/svg"
   xmlns:svg="http://www.w3.org/2000/svg">
  <sodipodi:namedview
     id="namedview7"
     pagecolor="#ffffff"
     bordercolor="#666666"
     borderopacity="1.0"
     inkscape:pageshadow="2"
     inkscape:pageopacity="0.0"
     inkscape:pagecheckerboard="0"
     inkscape:document-units="mm"
     showgrid="false"
     fit-margin-top="0"
     fit-margin-left="0"
     fit-margin-right="0"
     fit-margin-bottom="0"
     inkscape:zoom="22.919865"
     inkscape:cx="13.743536"
     inkscape:cy="15.488747"
     inkscape:window-width="1920"
     inkscape:window-height="1017"
     inkscape:window-x="-8"
     inkscape:window-y="-8"
     inkscape:window-maximized="1"
     inkscape:current-layer="layer1"
     inkscape:showpageshadow="2"
     inkscape:deskcolor="#d1d1d1" />
  <defs
     id="defs2">
    <clipPath
       clipPathUnits="userSpaceOnUse"
       id="clipPath526">
      <g
         id="g530"
         style="stroke-width:0.00143584"
         transform="matrix(696.45644,0,0,-696.45644,692197,-516405.72)">
        <path
           d="m -999.52755,-746.66204 h 17.09441 v 7.00057 h -17.09441 z"
           id="path528"
           style="stroke-width:0.00143584" />
      </g>
    </clipPath>
    <clipPath
       clipPathUnits="userSpaceOnUse"
       id="clipPath538">
      <g
         id="g542"
         style="stroke-width:0.00143584"
         transform="matrix(696.45644,0,0,-696.45644,690908.7,-519227.67)">
        <path
           d="m -999.52755,-746.66204 h 17.09441 v 7.00057 h -17.09441 z"
           id="path540"
           style="stroke-width:0.00143584" />
      </g>
    </clipPath>
    <clipPath
       clipPathUnits="userSpaceOnUse"
       id="clipPath550">
      <g
         id="g554"
         style="stroke-width:0.00143584"
         transform="matrix(696.45644,0,0,-696.45644,690393.37,-519260.14)">
        <path
           d="m -999.52755,-746.66204 h 17.09441 v 7.00057 h -17.09441 z"
           id="path552"
           style="stroke-width:0.00143584" />
      </g>
    </clipPath>
    <clipPath
       clipPathUnits="userSpaceOnUse"
       id="clipPath562">
      <g
         id="g566"
         style="stroke-width:0.00143584"
         transform="matrix(696.45644,0,0,-696.45644,690393.37,-518606.39)">
        <path
           d="m -999.52755,-746.66204 h 17.09441 v 7.00057 h -17.09441 z"
           id="path564"
           style="stroke-width:0.00143584" />
      </g>
    </clipPath>
    <clipPath
       clipPathUnits="userSpaceOnUse"
       id="clipPath574">
      <g
         id="g578"
         style="stroke-width:0.00143584"
         transform="matrix(696.45644,0,0,-696.45644,689418.66,-517486.82)">
        <path
           d="m -999.52755,-746.66204 h 17.09441 v 7.00057 h -17.09441 z"
           id="path576"
           style="stroke-width:0.00143584" />
      </g>
    </clipPath>
    <clipPath
       clipPathUnits="userSpaceOnUse"
       id="clipPath586">
      <g
         id="g590"
         style="stroke-width:0.00143584"
         transform="matrix(696.45644,0,0,-696.45644,688445.86,-517228.13)">
        <path
           d="m -999.52755,-746.66204 h 17.09441 v 7.00057 h -17.09441 z"
           id="path588"
           style="stroke-width:0.00143584" />
      </g>
    </clipPath>
    <clipPath
       clipPathUnits="userSpaceOnUse"
       id="clipPath604">
      <g
         id="g608"
         style="stroke-width:0.00143584"
         transform="matrix(696.45644,0,0,-696.45644,687275.74,-519239.6)">
        <path
           d="m -999.52755,-746.66204 h 17.09441 v 7.00057 h -17.09441 z"
           id="path606"
           style="stroke-width:0.00143584" />
      </g>
    </clipPath>
    <clipPath
       clipPathUnits="userSpaceOnUse"
       id="clipPath616">
      <g
         id="g620"
         style="stroke-width:0.00143584"
         transform="matrix(696.45644,0,0,-696.45644,687275.74,-516145.44)">
        <path
           d="m -999.52755,-746.66204 h 17.09441 v 7.00057 h -17.09441 z"
           id="path618"
           style="stroke-width:0.00143584" />
      </g>
    </clipPath>
  </defs>
  <g
     inkscape:label="Calque 1"
     inkscape:groupmode="layer"
     id="layer1"
     transform="translate(995.97999,748.00056)">
    <g
       id="g840"
       transform="matrix(0.00143584,0,0,-0.00143584,-986.81801,-741.10227)"
       style="stroke-width:245.694"
       clip-path="url(#clipPath616)">
      <path
         d="m 0,0 v -226.172 c -1605.471,-1036.7 -4191.871,-1036.7 -5797.287,0 V 0 C -4214.687,-735.119 -1582.6,-735.119 0,0"
         style="fill:#005796;fill-opacity:1;fill-rule:nonzero;stroke:none;stroke-width:245.694"
         id="path842" />
    </g>
    <g
       id="g844"
       transform="matrix(0.00143584,0,0,-0.00143584,-986.81801,-741.10226)"
       style="stroke-width:104.46846374;stroke-dasharray:none;stroke:none"
       clip-path="none">
      <path
         d="m 0,-226.17 c -1605.468,-1036.702 -4191.871,-1036.702 -5797.285,0 V 0 C -4214.684,-735.116 -1582.602,-735.116 0,0 Z"
         style="fill:#005796;fill-opacity:1;fill-rule:nonzero;stroke:none;stroke-width:104.46846374;stroke-dasharray:none"
         id="path846"
         sodipodi:nodetypes="ccccc" />
    </g>
    <g
       id="g848"
       transform="matrix(0.00143584,0,0,-0.00143584,-986.81801,-745.545)"
       style="stroke-width:245.694"
       clip-path="url(#clipPath604)">
      <path
         d="m 0,0 v -226.131 c -1582.6,735.144 -4214.687,735.144 -5797.287,0 V 0 C -4191.871,1036.758 -1605.471,1036.758 0,0"
         style="fill:#005796;fill-opacity:1;fill-rule:nonzero;stroke:none;stroke-width:245.694"
         id="path850" />
    </g>
    <path
       d="m -986.81801,-745.22032 c -2.27236,-1.05553 -6.05161,-1.05553 -8.32397,0 v -0.32467 c 2.30511,-1.48863 6.01877,-1.48863 8.32397,0 z"
       style="fill:none;fill-opacity:1;fill-rule:nonzero;stroke:none;stroke-width:0.1;stroke-dasharray:none"
       id="path721"
       sodipodi:nodetypes="ccccc"
       clip-path="none"
       mask="none" />
    <g
       id="g856"
       transform="matrix(0.00143584,0,0,-0.00143584,-986.96599,-744.81157)"
       style="stroke-width:245.694"
       clip-path="none">
      <path
         d="m 0,0 v -2298.68 c -57.798,-23.308 -173.111,-66.987 -231.903,-87.746 v 538.477 c -82.081,-32.827 -245.394,-92.001 -329.408,-119.338 l -94.011,-557.563 c -61.565,-18.452 -184.123,-52.351 -246.457,-68.09 L -438.09,158.614 C -325.748,123.107 -108.882,44.555 0,0 M -231.903,-1603.571 V -153.79 c -5.601,2.079 -16.768,6.254 -22.38,8.235 l -264.138,-1567.137 c 72.981,25.323 215.226,79.494 286.518,109.121"
         style="fill:#005796;fill-opacity:1;fill-rule:nonzero;stroke:none;stroke-width:245.694"
         id="path858" />
    </g>
    <g
       id="g860"
       transform="matrix(0.00143584,0,0,-0.00143584,-988.49811,-742.65685)"
       style="stroke-width:245.694"
       clip-path="url(#clipPath586)">
      <path
         d="m 0,0 c 21.58,-35.803 38.628,-103.557 36.445,-145.123 v -677.015 c 0,-208.214 -173.058,-376.968 -386.492,-376.968 -213.416,0 -386.555,168.754 -386.555,376.968 v 392.647 c 65.147,9.26 193.165,31 257.78,43.641 v -436.288 c 0,-69.404 57.577,-125.732 128.775,-125.732 71.147,0 128.781,56.328 128.781,125.732 v 677.015 c 2.286,41.566 -14.71,109.32 -36.513,145.123 l -442.327,828.338 c -21.671,35.779 -38.771,103.605 -36.496,145.112 v 551.394 c 0,208.207 173.139,376.911 386.555,376.911 213.434,0 386.492,-168.704 386.492,-376.911 v -424.802 c -64.442,17.649 -192.466,49.2 -257.711,63.517 v 361.285 c 0,69.407 -57.634,125.614 -128.781,125.614 -71.198,0 -128.775,-56.207 -128.775,-125.614 V 973.45 c -2.282,-41.507 14.703,-109.333 36.324,-145.112 L 0,0"
         style="fill:#005796;fill-opacity:1;fill-rule:nonzero;stroke:none;stroke-width:245.694"
         id="path862" />
    </g>
    <g
       id="g864"
       transform="matrix(0.00143584,0,0,-0.00143584,-988.4981,-742.65684)"
       style="stroke-width:245.694"
       clip-path="none">
      <path
         d="M 0,0 C 21.579,-35.8 38.627,-103.55 36.441,-145.116 V -822.13 c 0,-208.221 -173.058,-376.971 -386.489,-376.971 -213.419,0 -386.557,168.75 -386.557,376.971 v 392.646 c 65.146,9.258 193.167,31.007 257.782,43.645 V -822.13 c 0,-69.407 57.578,-125.738 128.775,-125.738 71.146,0 128.78,56.331 128.78,125.738 v 677.014 C -218.982,-103.55 -235.977,-35.8 -257.783,0 l -442.324,828.352 c -21.672,35.767 -38.773,103.598 -36.498,145.099 v 551.406 c 0,208.205 173.138,376.906 386.557,376.906 213.431,0 386.489,-168.701 386.489,-376.906 V 1100.05 c -64.44,17.64 -192.464,49.201 -257.709,63.511 v 361.296 c 0,69.407 -57.634,125.608 -128.78,125.608 -71.197,0 -128.775,-56.201 -128.775,-125.608 V 973.451 c -2.282,-41.501 14.704,-109.332 36.323,-145.099 z"
         style="fill:#005796;fill-opacity:1;fill-rule:nonzero;stroke:none;stroke-width:245.694"
         id="path866" />
    </g>
    <g
       id="g868"
       transform="matrix(0.00143584,0,0,-0.00143584,-989.89489,-743.02828)"
       style="stroke-width:245.694"
       clip-path="url(#clipPath574)">
      <path
         d="m 0,0 c 25.481,-38.336 45.658,-111.224 42.978,-156.928 v -1021.687 c 0,-222.08 -184.567,-402.067 -412.262,-402.067 -227.651,0 -412.175,179.987 -412.175,402.067 v 416.85 c 64.809,-0.653 192.805,1.365 257.625,3.977 v -420.827 c 0,-83.283 69.243,-150.774 154.55,-150.774 85.357,0 154.652,67.491 154.652,150.774 v 1021.687 c 2.51,45.704 -17.43,118.592 -43.085,156.928 l -480.737,813.646 c -25.666,38.24 -45.629,111.18 -43.005,156.827 v 393.471 c 0,222.037 184.524,402.124 412.175,402.124 227.695,0 412.262,-180.087 412.262,-402.124 v -337.908 c -64.65,8.065 -192.571,20.591 -257.61,25.388 v 312.52 c 0,83.238 -69.295,150.731 -154.652,150.731 -85.307,0 -154.55,-67.493 -154.55,-150.731 V 970.473 c -2.618,-45.647 17.437,-118.587 43.04,-156.827 L 0,0"
         style="fill:#005796;fill-opacity:1;fill-rule:nonzero;stroke:none;stroke-width:245.694"
         id="path870" />
    </g>
    <g
       id="g872"
       transform="matrix(0.00143584,0,0,-0.00143584,-989.89489,-743.02828)"
       style="stroke-width:245.694"
       clip-path="none">
      <path
         d="m 0,0 c 25.48,-38.334 45.659,-111.217 42.975,-156.925 v -1021.693 c 0,-222.076 -184.563,-402.067 -412.259,-402.067 -227.652,0 -412.178,179.991 -412.178,402.067 v 416.863 c 64.81,-0.666 192.806,1.364 257.628,3.964 v -420.827 c 0,-83.279 69.245,-150.77 154.55,-150.77 85.358,0 154.651,67.491 154.651,150.77 v 1021.693 c 2.51,45.708 -17.43,118.591 -43.086,156.925 l -480.735,813.651 c -25.664,38.237 -45.631,111.184 -43.008,156.828 v 393.473 c 0,222.027 184.526,402.115 412.178,402.115 227.696,0 412.259,-180.088 412.259,-402.115 v -337.906 c -64.648,8.058 -192.571,20.58 -257.608,25.389 v 312.517 c 0,83.23 -69.293,150.72 -154.651,150.72 -85.305,0 -154.55,-67.49 -154.55,-150.72 V 970.479 c -2.619,-45.644 17.438,-118.591 43.037,-156.828 z"
         style="fill:#005796;fill-opacity:1;fill-rule:nonzero;stroke:none;stroke-width:245.694"
         id="path874" />
    </g>
    <g
       id="g876"
       transform="matrix(0.00143584,0,0,-0.00143584,-991.29442,-744.6358)"
       style="stroke-width:245.694"
       clip-path="url(#clipPath562)">
      <path
         d="m 0,0 v -2707.538 c -64.883,1.559 -192.994,7.357 -257.722,11.815 V -13.016 C -192.994,-8.114 -64.946,-1.685 0,0"
         style="fill:#005796;fill-opacity:1;fill-rule:nonzero;stroke:none;stroke-width:245.694"
         id="path878" />
    </g>
    <g
       id="g880"
       transform="matrix(0.00143584,0,0,-0.00143584,-991.29443,-744.63581)"
       style="stroke-width:245.694"
       clip-path="none">
      <path
         d="m 0,0 v -2707.536 c -64.883,1.559 -192.993,7.358 -257.721,11.808 V -13.027 C -192.993,-8.122 -64.944,-1.689 0,0"
         style="fill:#005796;fill-opacity:1;fill-rule:nonzero;stroke:none;stroke-width:245.694"
         id="path882" />
    </g>
    <g
       id="g884"
       transform="matrix(0.00143584,0,0,-0.00143584,-991.29442,-745.57449)"
       style="stroke-width:245.694"
       clip-path="url(#clipPath550)">
      <path
         d="m 0,0 v -452.627 c -64.946,-1.636 -192.994,-7.909 -257.722,-12.595 V -11.83 C -192.994,-7.469 -64.883,-1.587 0,0"
         style="fill:#005796;fill-opacity:1;fill-rule:nonzero;stroke:none;stroke-width:245.694"
         id="path886" />
    </g>
    <g
       id="g888"
       transform="matrix(0.00143584,0,0,-0.00143584,-991.29443,-745.57449)"
       style="stroke-width:245.694"
       clip-path="none">
      <path
         d="m 0,0 v -452.631 c -64.944,-1.64 -192.993,-7.911 -257.721,-12.589 V -11.825 C -192.993,-7.472 -64.883,-1.592 0,0"
         style="fill:#005796;fill-opacity:1;fill-rule:nonzero;stroke:none;stroke-width:245.694"
         id="path890" />
    </g>
    <g
       id="g892"
       transform="matrix(0.00143584,0,0,-0.00143584,-992.03436,-745.52787)"
       style="stroke-width:245.694"
       clip-path="url(#clipPath538)">
      <path
         d="m 0,0 v -3296.41 c -58.454,5.443 -173.798,18.405 -231.931,26.186 v 2127.022 l -309.134,-1524.305 -309.289,1435.618 v -1932.806 c -58.551,12.148 -173.857,38.724 -231.815,53.382 v 2926.209 c 57.958,14.656 173.264,41.184 231.815,53.383 l 309.289,-1435.572 309.134,1541.1 C -173.798,-18.36 -58.454,-5.447 0,0"
         style="fill:#005796;fill-opacity:1;fill-rule:nonzero;stroke:none;stroke-width:245.694"
         id="path894" />
    </g>
    <g
       id="g896"
       transform="matrix(0.00143584,0,0,-0.00143584,-992.03436,-745.52787)"
       style="stroke-width:245.694"
       clip-path="none">
      <path
         d="m 0,0 v -3296.415 c -58.455,5.441 -173.797,18.403 -231.932,26.184 v 2127.023 l -309.131,-1524.306 -309.29,1435.618 v -1932.803 c -58.552,12.149 -173.858,38.723 -231.818,53.375 v 2926.217 c 57.96,14.651 173.266,41.176 231.818,53.375 L -541.063,-1567.301 -231.932,-26.2 C -173.797,-18.371 -58.455,-5.458 0,0"
         style="fill:#005796;fill-opacity:1;fill-rule:nonzero;stroke:none;stroke-width:245.694"
         id="path898" />
    </g>
    <g
       id="g900"
       transform="matrix(0.00143584,0,0,-0.00143584,-993.88415,-741.476)"
       style="stroke-width:245.694"
       clip-path="url(#clipPath526)">
      <path
         d="m 0,0 v -235.374 c -201.606,52.225 -581.236,179.825 -772.958,259.842 v 2298.613 c 166.282,68.951 496.068,182.421 669.868,230.475 v -236.475 c -105.539,-30.834 -309.575,-99.253 -412.228,-138.256 v -891.969 h 463.763 v -226.18 H -515.318 V 168.71 C -387.119,119.682 -132.583,36.388 0,0"
         style="fill:#005796;fill-opacity:1;fill-rule:nonzero;stroke:none;stroke-width:245.694"
         id="path902" />
    </g>
    <g
       id="g904"
       transform="matrix(0.00143584,0,0,-0.00143584,-993.88415,-741.476)"
       style="stroke-width:245.694"
       clip-path="none">
      <path
         d="m 0,0 v -235.379 c -201.609,52.237 -581.24,179.827 -772.962,259.841 v 2298.615 c 166.285,68.952 496.069,182.427 669.871,230.474 v -236.468 c -105.54,-30.829 -309.574,-99.261 -412.23,-138.261 v -891.96 H -51.556 V 1060.677 H -515.321 V 168.718 C -387.123,119.68 -132.585,36.385 0,0"
         style="fill:#005796;fill-opacity:1;fill-rule:nonzero;stroke:none;stroke-width:245.694"
         id="path906" />
    </g>
  </g>
</svg>
